<?xml version="1.0" encoding="utf-8"?>
<COLLADA xmlns="http://www.collada.org/2005/11/COLLADASchema" version="1.4.1">
  <asset>
    <contributor>
      <author>Blender User</author>
      <authoring_tool>Blender 2.76.0 commit date:2015-11-03, commit time:10:56, hash:f337fea</authoring_tool>
    </contributor>
    <created>2016-02-11T17:07:17</created>
    <modified>2016-02-11T17:07:17</modified>
    <unit name="meter" meter="1"/>
    <up_axis>Z_UP</up_axis>
  </asset>
  <library_images/>
  <library_geometries>
    <geometry id="Quadrotor_4-mesh" name="Quadrotor 4">
      <mesh>
        <source id="Quadrotor_4-mesh-positions">
          <float_array id="Quadrotor_4-mesh-positions-array" count="2496">0.1299999 -0.14 0 0.14 -0.1299999 0 0.04737913 -0.05737912 0 0.05737912 -0.04737913 0 -0.04737913 -0.05737912 0 -0.05737912 -0.04737913 0 -0.1299999 -0.14 0 -0.14 -0.1299999 0 0.14 0.1299999 0 0.1299999 0.14 0 0.05737912 0.04737913 0 0.04737913 0.05737912 0 -0.05737912 0.04737913 0 -0.04737913 0.05737912 0 -0.14 0.1299999 0 -0.1299999 0.14 0 0.03780454 0.06999999 0 -0.03780454 0.06999999 0 0.04236429 0.06351697 0 -0.04236429 0.06351697 0 0.06667619 0.04005497 0 -0.06667619 0.04005497 0 0.0767064 0.03377217 0 -0.0767064 0.03377217 0 0.08735352 0.02860331 0 -0.08735352 0.02860331 0 0.09849441 0.02460831 0 -0.09849441 0.02460831 0 0.11 0.02183341 0 -0.11 0.02183341 0 0.11 -0.02183341 0 -0.11 -0.02183341 0 0.09849441 -0.02460831 0 -0.09849441 -0.02460831 0 0.08735352 -0.02860331 0 -0.08735352 -0.02860331 0 0.0767064 -0.03377217 0 -0.0767064 -0.03377217 0 0.06667619 -0.04005497 0 -0.06667619 -0.04005497 0 0.04236429 -0.06351697 0 -0.04236429 -0.06351697 0 0.03780454 -0.06999999 0 -0.03780454 -0.06999999 0 0.11 0.02183341 -0.02999997 -0.09762978 0.02487069 -0.02999997 0.09762978 0.02487069 -0.02999997 -0.08569359 0.02931761 -0.02999997 0.08569359 0.02931761 -0.02999997 -0.07435154 0.03511452 -0.02999997 0.07435154 0.03511452 -0.02999997 -0.06375563 0.04218375 -0.02999997 0.06375563 0.04218375 -0.02999997 -0.054048 0.05043053 -0.02999997 0.054048 0.05043053 -0.02999997 -0.04535877 0.05974423 -0.02999997 0.04535877 0.05974423 -0.02999997 -0.03780454 0.06999999 -0.02999997 0.03780454 0.06999999 -0.02999997 -0.11 0.02183341 -0.02999997 0.11 -0.02183341 -0.02999997 -0.11 -0.02183341 -0.02999997 0.09762978 -0.02487069 -0.02999997 -0.09762978 -0.02487069 -0.02999997 0.08569359 -0.02931761 -0.02999997 -0.08569359 -0.02931761 -0.02999997 0.07435154 -0.03511452 -0.02999997 -0.07435154 -0.03511452 -0.02999997 0.06375563 -0.04218375 -0.02999997 -0.06375563 -0.04218375 -0.02999997 0.054048 -0.05043053 -0.02999997 -0.054048 -0.05043053 -0.02999997 0.04535877 -0.05974423 -0.02999997 -0.04535877 -0.05974423 -0.02999997 0.03780454 -0.06999999 -0.02999997 -0.03780454 -0.06999999 -0.02999997 0.05737912 0.04737913 -0.00999999 0.05221819 0.05221819 -0.00999999 0.04737913 0.05737912 -0.00999999 0.05737912 -0.04737913 -0.00999999 0.05221819 -0.05221819 -0.00999999 0.04737913 -0.05737912 -0.00999999 -0.05737912 -0.04737913 -0.00999999 -0.05221819 -0.05221819 -0.00999999 -0.04737913 -0.05737912 -0.00999999 -0.05737912 0.04737913 -0.00999999 -0.05221819 0.05221819 -0.00999999 -0.04737913 0.05737912 -0.00999999 0.14 -0.1299999 -0.00999999 0.12 -0.11 -0.00999999 0.11 -0.12 -0.00999999 0.1299999 -0.14 -0.00999999 -0.11 0.12 -0.00999999 -0.1299999 0.14 -0.00999999 -0.14 0.1299999 -0.00999999 -0.12 0.11 -0.00999999 -0.12 -0.11 -0.00999999 -0.14 -0.1299999 -0.00999999 -0.1299999 -0.14 -0.00999999 -0.11 -0.12 -0.00999999 0.12 0.11 -0.00999999 0.14 0.1299999 -0.00999999 0.1299999 0.14 -0.00999999 0.11 0.12 -0.00999999 -0.1 -0.1299999 -0.00999999 -0.1299999 -0.16 -0.00999999 -0.16 -0.1299999 -0.00999999 -0.1299999 -0.1 -0.00999999 -0.1 0.1299999 -0.00999999 -0.1299999 0.16 -0.00999999 -0.16 0.1299999 -0.00999999 -0.1299999 0.1 -0.00999999 0.1299999 0.1 -0.00999999 0.16 0.1299999 -0.00999999 0.1299999 0.16 -0.00999999 0.1 0.1299999 -0.00999999 0.1299999 -0.1 -0.00999999 0.16 -0.1299999 -0.00999999 0.1299999 -0.16 -0.00999999 0.1 -0.1299999 -0.00999999 -0.1299999 -0.1 -0.03999996 -0.1 -0.1299999 -0.03999996 -0.1 0.1299999 -0.03999996 -0.1299999 0.1 -0.03999996 0.1299999 0.1 -0.03999996 0.1 0.1299999 -0.03999996 0.1 -0.1299999 -0.03999996 0.1299999 -0.1 -0.03999996 -0.16 -0.1299999 -0.03999996 -0.1299999 -0.16 -0.03999996 -0.16 0.1299999 -0.03999996 -0.1299999 0.16 -0.03999996 0.1299999 0.16 -0.03999996 0.16 0.1299999 -0.03999996 0.16 -0.1299999 -0.03999996 0.1299999 -0.16 -0.03999996 0.2594021 -0.1175462 0.03999996 0.2584366 -0.1098991 0 0.2576139 -0.1052069 0.03999996 0.2299447 -0.04686719 0 0.2204903 -0.03666454 0 0.2256005 -0.04190599 0.03999996 0.2324695 -0.04999995 0.03999996 0.2393557 -0.05970543 0.03999996 0.2382548 -0.05802154 0 0.2564911 -0.1 0 0.2535973 -0.08970469 0 0.2546518 -0.09309571 0.03999996 0.06071794 -0.24 0.03999996 0.06071794 -0.24 0 0.07282006 -0.2467496 0.03999996 0.07282006 -0.2467496 0 0.08557188 -0.2521726 0.03999996 0.08557188 -0.2521726 0 0.09882849 -0.2562075 0.03999996 0.09882849 -0.2562075 0 0.1124393 -0.2588085 0.03999996 0.1124393 -0.2588085 0 0.1262496 -0.2599459 0.03999996 0.1262496 -0.2599459 0 0.1401025 -0.2596069 0.03999996 0.1401025 -0.2596069 0 0.1538406 -0.2577953 0.03999996 0.1538406 -0.2577953 0 0.1673079 -0.2545316 0.03999996 0.1673079 -0.2545316 0 0.1803511 -0.249853 0.03999996 0.1803511 -0.249853 0 0.1928225 -0.2438127 0.03999996 0.1928225 -0.2438127 0 0.20458 -0.2364792 0.03999996 0.20458 -0.2364792 0 0.2154901 -0.2279359 0.03999996 0.2154901 -0.2279359 0 0.2254288 -0.2182798 0.03999996 0.2254288 -0.2182798 0 0.2342833 -0.2076208 0.03999996 0.2342833 -0.2076208 0 0.241953 -0.1960798 0.03999996 0.241953 -0.1960798 0 0.2483506 -0.183788 0.03999996 0.2483506 -0.183788 0 0.2534035 -0.170885 0.03999996 0.2534035 -0.170885 0 0.2570543 -0.1575175 0.03999996 0.2570543 -0.1575175 0 0.2592615 -0.1438374 0.03999996 0.2592615 -0.1438374 0 0.26 -0.1299999 0.03999996 0.26 -0.1299999 0 0.2596086 -0.1199192 0 0.2505431 -0.08132398 0.03999996 0.2498671 -0.07968205 0 0.2453256 -0.06999999 0.03999996 0.2453256 -0.06999999 0 0.21 -0.02753049 0 0.21 -0.02753049 0.03999996 0.2180939 -0.0343995 0.03999996 0.2204903 0.03666454 0 0.2299447 0.04686719 0 0.2256005 0.04190599 0.03999996 0.2594021 0.1175462 0.03999996 0.2576139 0.1052069 0.03999996 0.2584366 0.1098991 0 0.2324695 0.04999995 0.03999996 0.2382548 0.05802154 0 0.2393557 0.05970543 0.03999996 0.2564911 0.1 0 0.2546518 0.09309571 0.03999996 0.2535973 0.08970469 0 0.21 0.02753049 0.03999996 0.21 0.02753049 0 0.2180939 0.0343995 0.03999996 0.2453256 0.06999999 0.03999996 0.2453256 0.06999999 0 0.2505431 0.08132398 0.03999996 0.2498671 0.07968205 0 0.06071794 0.24 0 0.06071794 0.24 0.03999996 0.07282006 0.2467496 0 0.07282006 0.2467496 0.03999996 0.08557188 0.2521726 0 0.08557188 0.2521726 0.03999996 0.09882849 0.2562075 0 0.09882849 0.2562075 0.03999996 0.1124393 0.2588085 0 0.1124393 0.2588085 0.03999996 0.1262496 0.2599459 0 0.1262496 0.2599459 0.03999996 0.1401025 0.2596069 0 0.1401025 0.2596069 0.03999996 0.1538406 0.2577953 0 0.1538406 0.2577953 0.03999996 0.1673079 0.2545316 0 0.1673079 0.2545316 0.03999996 0.1803511 0.249853 0 0.1803511 0.249853 0.03999996 0.1928225 0.2438127 0 0.1928225 0.2438127 0.03999996 0.20458 0.2364792 0 0.20458 0.2364792 0.03999996 0.2154901 0.2279359 0 0.2154901 0.2279359 0.03999996 0.2254288 0.2182798 0 0.2254288 0.2182798 0.03999996 0.2342833 0.2076208 0 0.2342833 0.2076208 0.03999996 0.241953 0.1960798 0 0.241953 0.1960798 0.03999996 0.2483506 0.183788 0 0.2483506 0.183788 0.03999996 0.2534035 0.170885 0 0.2534035 0.170885 0.03999996 0.2570543 0.1575175 0 0.2570543 0.1575175 0.03999996 0.2592615 0.1438374 0 0.2592615 0.1438374 0.03999996 0.26 0.1299999 0 0.26 0.1299999 0.03999996 0.2596086 0.1199192 0 -0.06071794 -0.24 0.03999996 -0.06071794 -0.24 0 -0.06071794 0.24 0.03999996 -0.06071794 0.24 0 -0.1364272 -0.02018791 0 -0.1491939 -0.0216875 0 -0.2384248 -0.01770138 0 -0.2402169 -0.03532201 0 0.1236041 -0.2398139 0 -0.1959637 -0.04197281 0 -0.2057825 -0.05026912 0 -0.2431946 -0.05278146 0 0.185 0.2252628 0 0.1735688 0.2310038 0 0.1852442 -0.03487855 0 0.1737702 -0.02908331 0 0.1616985 -0.02466619 0 0.1491939 -0.0216875 0 0.1364272 -0.02018791 0 0.1364272 0.02018791 0 0.1491939 0.0216875 0 0.1616985 0.02466619 0 0.1737702 0.02908331 0 0.1236041 0.2398139 0 -0.1236041 0.2398139 0 -0.0729112 0.2467941 0 -0.1937087 -0.243319 0 -0.1407092 -0.2595581 0 -0.1545384 -0.2576631 0 -0.1680846 -0.2542963 0 -0.1811918 -0.2494965 0 -0.1236041 -0.2398139 0 -0.1108987 -0.2383289 0 0.1108987 -0.2383289 0 -0.0729112 -0.2467941 0 -0.08576261 -0.2522418 0 -0.09912407 -0.2562803 0 -0.1128414 -0.2588627 0 -0.1937087 0.243319 0 -0.1811918 0.2494965 0 -0.1680846 0.2542963 0 -0.1545384 0.2576631 0 -0.1407092 0.2595581 0 -0.1128414 0.2588627 0 -0.09912407 0.2562803 0 -0.08576261 0.2522418 0 0.1363959 -0.2398139 0 0.1491013 -0.2383289 0 0.1363959 0.2398139 0 0.1491013 0.2383289 0 -0.1616985 -0.02466619 0 -0.1737702 -0.02908331 0 -0.1852442 -0.03487855 0 -0.2384248 0.01770138 0 -0.2402169 0.03532201 0 -0.1852442 0.03487855 0 -0.1737702 0.02908331 0 -0.1616985 0.02466619 0 -0.1491939 0.0216875 0 -0.1364272 0.02018791 0 -0.2378266 0 0 -0.1267566 -0.2599595 0 -0.1363959 -0.2398139 0 0.1235728 0.02018791 0 -0.1235728 -0.02018791 0 -0.1235728 0.02018791 0 -0.1363959 0.2398139 0 -0.1267566 0.2599595 0 0.1235728 -0.02018791 0 -0.1615484 0.2353788 0 -0.2054911 0.2358351 0 -0.1491013 0.2383289 0 -0.185 0.2252628 0 -0.2164034 0.2271311 0 -0.1735688 0.2310038 0 -0.2219037 0.190446 0 -0.2427188 0.1947648 0 -0.2142649 0.2007066 0 -0.2351251 0.2064769 0 -0.2054866 0.2100111 0 -0.2263195 0.2173073 0 -0.1956874 0.2182336 0 -0.2221954 0.06999999 0 -0.2473443 0.06999999 0 -0.2284902 0.08101344 0 -0.2526498 0.08690679 0 -0.2334751 0.09267842 0 -0.2565631 0.1003054 0 -0.2370839 0.1048397 0 -0.2590174 0.1140463 0 -0.2392685 0.1173357 0 -0.2599842 0.1279711 0 -0.24 0.1299999 0 -0.2594524 0.1419194 0 -0.2392562 0.1427702 0 -0.2574283 0.1557302 0 -0.2370349 0.1553678 0 -0.253935 0.1692444 0 -0.2333662 0.1676222 0 -0.2490129 0.1823061 0 -0.2282996 0.1793679 0 -0.2057825 0.05026912 0 -0.2431946 0.05278146 0 -0.2145664 0.05965423 0 -0.1959637 0.04197281 0 -0.2221954 -0.06999999 0 -0.2473443 -0.06999999 0 -0.2145664 -0.05965423 0 -0.2334751 -0.09267842 0 -0.2526498 -0.08690679 0 -0.2284902 -0.08101344 0 -0.2054866 -0.2100111 0 -0.2351251 -0.2064769 0 -0.2142649 -0.2007066 0 -0.2427188 -0.1947648 0 -0.2219037 -0.190446 0 -0.2490129 -0.1823061 0 -0.2282996 -0.1793679 0 -0.253935 -0.1692444 0 -0.2333662 -0.1676222 0 -0.2574283 -0.1557302 0 -0.2370349 -0.1553678 0 -0.2594524 -0.1419194 0 -0.2392562 -0.1427702 0 -0.2599842 -0.1279712 0 -0.24 -0.1299999 0 -0.2590174 -0.1140463 0 -0.2392685 -0.1173357 0 -0.2565631 -0.1003054 0 -0.2370839 -0.1048397 0 -0.1615484 -0.2353788 0 -0.2054911 -0.2358351 0 -0.1735688 -0.2310038 0 -0.2164034 -0.2271311 0 -0.185 -0.2252628 0 -0.2263195 -0.2173073 0 -0.1956874 -0.2182336 0 -0.1491013 -0.2383289 0 0.01999998 0.1299999 0 -0.02074378 0.1427702 0 0.02074378 0.1427702 0 -0.02296507 0.1553678 0 0.02296507 0.1553678 0 -0.02663379 0.1676222 0 0.02663379 0.1676222 0 -0.03170037 0.1793679 0 0.03170037 0.1793679 0 -0.0380963 0.190446 0 0.0380963 0.190446 0 -0.04573506 0.2007066 0 0.04573506 0.2007066 0 -0.05451339 0.2100111 0 0.05451339 0.2100111 0 -0.06431251 0.2182336 0 0.06431251 0.2182336 0 -0.07499998 0.2252628 0 0.07499998 0.2252628 0 -0.0864312 0.2310038 0 0.0864312 0.2310038 0 -0.09845161 0.2353788 0 0.09845161 0.2353788 0 -0.1108987 0.2383289 0 0.1108987 0.2383289 0 -0.01999998 0.1299999 0 0.02073144 0.1173357 0 -0.02073144 0.1173357 0 0.02291607 0.1048397 0 -0.02291607 0.1048397 0 0.02652484 0.09267842 0 -0.02652484 0.09267842 0 0.03150975 0.08101344 0 -0.03150975 0.08101344 0 0.04543358 0.05965423 0 -0.04543358 0.05965423 0 0.05421745 0.05026912 0 -0.05421745 0.05026912 0 0.06403625 0.04197281 0 -0.06403625 0.04197281 0 0.07475578 0.03487855 0 -0.07475578 0.03487855 0 0.0862298 0.02908331 0 -0.0862298 0.02908331 0 0.09830152 0.02466619 0 -0.09830152 0.02466619 0 0.1108061 0.0216875 0 -0.1108061 0.0216875 0 0.02073144 -0.1173357 0 -0.02291607 -0.1048397 0 0.02291607 -0.1048397 0 -0.02652484 -0.09267842 0 0.02652484 -0.09267842 0 -0.03150975 -0.08101344 0 0.03150975 -0.08101344 0 -0.04543358 -0.05965423 0 0.04543358 -0.05965423 0 -0.05421745 -0.05026912 0 0.05421745 -0.05026912 0 -0.06403625 -0.04197281 0 0.06403625 -0.04197281 0 -0.07475578 -0.03487855 0 0.07475578 -0.03487855 0 -0.0862298 -0.02908331 0 0.0862298 -0.02908331 0 -0.09830152 -0.02466619 0 0.09830152 -0.02466619 0 -0.1108061 -0.0216875 0 0.1108061 -0.0216875 0 -0.02073144 -0.1173357 0 0.01999998 -0.1299999 0 -0.01999998 -0.1299999 0 0.02074378 -0.1427702 0 -0.02074378 -0.1427702 0 0.02296507 -0.1553678 0 -0.02296507 -0.1553678 0 0.02663379 -0.1676222 0 -0.02663379 -0.1676222 0 0.03170037 -0.1793679 0 -0.03170037 -0.1793679 0 0.0380963 -0.190446 0 -0.0380963 -0.190446 0 0.04573506 -0.2007066 0 -0.04573506 -0.2007066 0 0.05451339 -0.2100111 0 -0.05451339 -0.2100111 0 0.06431251 -0.2182336 0 -0.06431251 -0.2182336 0 0.07499998 -0.2252628 0 -0.07499998 -0.2252628 0 0.0864312 -0.2310038 0 -0.0864312 -0.2310038 0 0.09845161 -0.2353788 0 -0.09845161 -0.2353788 0 0.1615484 0.2353788 0 0.2282996 0.1793679 0 0.2219037 0.190446 0 0.2142649 0.2007066 0 0.2054866 0.2100111 0 0.1956874 0.2182336 0 0.2370839 0.1048397 0 0.2392685 0.1173357 0 0.24 0.1299999 0 0.2392562 0.1427702 0 0.2370349 0.1553678 0 0.2333662 0.1676222 0 0.1852442 0.03487855 0 0.1959637 0.04197281 0 0.2057825 0.05026912 0 0.2145664 0.05965423 0 0.2221954 0.06999999 0 0.2284902 0.08101344 0 0.2334751 0.09267842 0 0.2057825 -0.05026912 0 0.1959637 -0.04197281 0 0.2392685 -0.1173357 0 0.2370839 -0.1048397 0 0.2334751 -0.09267842 0 0.2284902 -0.08101344 0 0.2221954 -0.06999999 0 0.2145664 -0.05965423 0 0.2142649 -0.2007066 0 0.2219037 -0.190446 0 0.2282996 -0.1793679 0 0.2333662 -0.1676222 0 0.2370349 -0.1553678 0 0.2392562 -0.1427702 0 0.24 -0.1299999 0 0.1615484 -0.2353788 0 0.1735688 -0.2310038 0 0.185 -0.2252628 0 0.1956874 -0.2182336 0 0.2054866 -0.2100111 0 0.1142812 0.02112889 0.06096583 0.1248121 -0.0201224 0.05948579 0.1248121 0.0201224 0.05948579 0.1299999 -0.01999998 0.0587567 0.1299999 0.01999998 0.0587567 0.21 -0.01999998 0.04751342 0.21 0.01999998 0.04751342 0.1142812 -0.02112889 0.06096583 0.1038928 0.02314299 0.06242585 0.1038928 -0.02314299 0.06242585 0.09374177 0.02614748 0.06385248 0.09374177 -0.02614748 0.06385248 0.04999995 0.01999998 0.06999999 0.04999995 -0.01999998 0.06999999 0.1299999 -0.01999998 0.03999996 0.21 -0.01999998 0.03999996 0.1299999 0.01999998 0.03999996 0.21 0.01999998 0.03999996 0.1760817 -0.03011769 0.03999996 0.1865857 -0.03567045 0.03999996 -0.1937087 -0.243319 0.03999996 -0.1236041 -0.2398139 0.03999996 -0.1363959 -0.2398139 0.03999996 0.1363959 -0.2398139 0.03999996 0.1236041 -0.2398139 0.03999996 -0.1811918 -0.2494965 0.03999996 -0.0729112 -0.2467941 0.03999996 0.1491013 -0.2383289 0.03999996 0.1615484 -0.2353788 0.03999996 0.1535897 -0.02255916 0.03999996 0.141864 -0.02064162 0.03999996 0.1650401 -0.02573019 0.03999996 0.1964295 -0.04232376 0.03999996 0.2054983 -0.04999995 0.03999996 0.2144411 -0.05950391 0.03999996 0.2221954 -0.06999999 0.03999996 0.2284902 -0.08101344 0.03999996 0.2334751 -0.09267842 0.03999996 0.2370839 -0.1048397 0.03999996 0.2392685 -0.1173357 0.03999996 0.24 -0.1299999 0.03999996 0.2392562 -0.1427702 0.03999996 0.2370349 -0.1553678 0.03999996 0.2333662 -0.1676222 0.03999996 0.2282996 -0.1793679 0.03999996 0.2219037 -0.190446 0.03999996 0.2142649 -0.2007066 0.03999996 0.2054866 -0.2100111 0.03999996 0.1956874 -0.2182336 0.03999996 0.185 -0.2252628 0.03999996 0.1735688 -0.2310038 0.03999996 0.05450165 -0.04999995 0.03999996 -0.05450165 -0.04999995 0.03999996 0.04555886 -0.05950391 0.03999996 -0.04555886 -0.05950391 0.03999996 0.03780454 -0.06999999 0.03999996 -0.03780454 -0.06999999 0.03999996 0.03150975 -0.08101344 0.03999996 -0.03150975 -0.08101344 0.03999996 0.02652484 -0.09267842 0.03999996 -0.02652484 -0.09267842 0.03999996 0.02291607 -0.1048397 0.03999996 -0.02291607 -0.1048397 0.03999996 0.02073144 -0.1173357 0.03999996 -0.02073144 -0.1173357 0.03999996 0.01999998 -0.1299999 0.03999996 -0.01999998 -0.1299999 0.03999996 0.02074378 -0.1427702 0.03999996 -0.02074378 -0.1427702 0.03999996 0.02296507 -0.1553678 0.03999996 -0.02296507 -0.1553678 0.03999996 0.02663379 -0.1676222 0.03999996 -0.02663379 -0.1676222 0.03999996 0.03170037 -0.1793679 0.03999996 -0.03170037 -0.1793679 0.03999996 0.0380963 -0.190446 0.03999996 -0.0380963 -0.190446 0.03999996 0.04573506 -0.2007066 0.03999996 -0.04573506 -0.2007066 0.03999996 0.05451339 -0.2100111 0.03999996 -0.05451339 -0.2100111 0.03999996 0.06431251 -0.2182336 0.03999996 -0.06431251 -0.2182336 0.03999996 0.07499998 -0.2252628 0.03999996 -0.07499998 -0.2252628 0.03999996 0.0864312 -0.2310038 0.03999996 -0.0864312 -0.2310038 0.03999996 0.09845161 -0.2353788 0.03999996 -0.09845161 -0.2353788 0.03999996 0.1108987 -0.2383289 0.03999996 -0.1108987 -0.2383289 0.03999996 -0.08576261 -0.2522418 0.03999996 -0.1680846 -0.2542963 0.03999996 -0.09912407 -0.2562803 0.03999996 -0.1128414 -0.2588627 0.03999996 -0.1545384 -0.2576631 0.03999996 -0.1267566 -0.2599595 0.03999996 -0.1407092 -0.2595581 0.03999996 -0.2054983 -0.04999995 0.03999996 -0.2426385 -0.04999995 0.03999996 -0.2144411 -0.05950391 0.03999996 -0.2447954 -0.06004607 0.03999996 -0.2221954 -0.06999999 0.03999996 -0.2473443 -0.06999999 0.03999996 -0.2284902 -0.08101344 0.03999996 -0.2526498 -0.08690679 0.03999996 -0.2334751 -0.09267842 0.03999996 -0.2370839 -0.1048397 0.03999996 -0.2565631 -0.1003054 0.03999996 -0.2392685 -0.1173357 0.03999996 -0.2590174 -0.1140463 0.03999996 -0.24 -0.1299999 0.03999996 -0.2599842 -0.1279712 0.03999996 -0.2392562 -0.1427702 0.03999996 -0.2594524 -0.1419194 0.03999996 -0.2370349 -0.1553678 0.03999996 -0.2574283 -0.1557302 0.03999996 -0.2333662 -0.1676222 0.03999996 -0.253935 -0.1692444 0.03999996 -0.2282996 -0.1793679 0.03999996 -0.2490129 -0.1823061 0.03999996 -0.2219037 -0.190446 0.03999996 -0.2427188 -0.1947648 0.03999996 -0.2142649 -0.2007066 0.03999996 -0.2351251 -0.2064769 0.03999996 -0.2054866 -0.2100111 0.03999996 -0.1956874 -0.2182336 0.03999996 -0.2263195 -0.2173073 0.03999996 -0.185 -0.2252628 0.03999996 -0.2164034 -0.2271311 0.03999996 -0.1735688 -0.2310038 0.03999996 -0.2054911 -0.2358351 0.03999996 -0.1615484 -0.2353788 0.03999996 -0.1491013 -0.2383289 0.03999996 -0.1363959 0.2398139 0.03999996 -0.1236041 0.2398139 0.03999996 -0.1937087 0.243319 0.03999996 -0.2054911 0.2358351 0.03999996 -0.1491013 0.2383289 0.03999996 -0.1735688 0.2310038 0.03999996 -0.2164034 0.2271311 0.03999996 -0.185 0.2252628 0.03999996 0.1735688 0.2310038 0.03999996 0.185 0.2252628 0.03999996 0.1865857 0.03567045 0.03999996 0.1760817 0.03011769 0.03999996 0.1650401 0.02573019 0.03999996 -0.0729112 0.2467941 0.03999996 -0.1811918 0.2494965 0.03999996 0.1236041 0.2398139 0.03999996 0.1535897 0.02255916 0.03999996 0.141864 0.02064162 0.03999996 -0.1615484 0.2353788 0.03999996 -0.1956874 0.2182336 0.03999996 -0.2263195 0.2173073 0.03999996 -0.2054866 0.2100111 0.03999996 -0.2351251 0.2064769 0.03999996 -0.2142649 0.2007066 0.03999996 -0.2427188 0.1947648 0.03999996 -0.2219037 0.190446 0.03999996 -0.2282996 0.1793679 0.03999996 -0.2490129 0.1823061 0.03999996 -0.2333662 0.1676222 0.03999996 -0.253935 0.1692444 0.03999996 -0.2370349 0.1553678 0.03999996 -0.2574283 0.1557302 0.03999996 -0.2392562 0.1427702 0.03999996 -0.2594524 0.1419194 0.03999996 -0.24 0.1299999 0.03999996 -0.2599842 0.1279711 0.03999996 -0.2392685 0.1173357 0.03999996 -0.2590174 0.1140463 0.03999996 -0.2370839 0.1048397 0.03999996 -0.2565631 0.1003054 0.03999996 -0.2334751 0.09267842 0.03999996 -0.2526498 0.08690679 0.03999996 -0.2284902 0.08101344 0.03999996 -0.2473443 0.06999999 0.03999996 -0.2221954 0.06999999 0.03999996 -0.2144411 0.05950391 0.03999996 -0.2447954 0.06004607 0.03999996 -0.2054983 0.04999995 0.03999996 -0.2426385 0.04999995 0.03999996 0.1108987 0.2383289 0.03999996 -0.1108987 0.2383289 0.03999996 0.09845161 0.2353788 0.03999996 -0.09845161 0.2353788 0.03999996 0.0864312 0.2310038 0.03999996 -0.0864312 0.2310038 0.03999996 0.07499998 0.2252628 0.03999996 -0.07499998 0.2252628 0.03999996 0.06431251 0.2182336 0.03999996 -0.06431251 0.2182336 0.03999996 0.05451339 0.2100111 0.03999996 -0.05451339 0.2100111 0.03999996 0.04573506 0.2007066 0.03999996 -0.04573506 0.2007066 0.03999996 0.0380963 0.190446 0.03999996 -0.0380963 0.190446 0.03999996 0.03170037 0.1793679 0.03999996 -0.03170037 0.1793679 0.03999996 0.02663379 0.1676222 0.03999996 -0.02663379 0.1676222 0.03999996 0.02296507 0.1553678 0.03999996 -0.02296507 0.1553678 0.03999996 0.02074378 0.1427702 0.03999996 -0.02074378 0.1427702 0.03999996 0.01999998 0.1299999 0.03999996 -0.01999998 0.1299999 0.03999996 0.02073144 0.1173357 0.03999996 -0.02073144 0.1173357 0.03999996 0.02291607 0.1048397 0.03999996 -0.02291607 0.1048397 0.03999996 0.02652484 0.09267842 0.03999996 -0.02652484 0.09267842 0.03999996 0.03150975 0.08101344 0.03999996 -0.03150975 0.08101344 0.03999996 0.03780454 0.06999999 0.03999996 -0.03780454 0.06999999 0.03999996 0.04555886 0.05950391 0.03999996 -0.04555886 0.05950391 0.03999996 0.05450165 0.04999995 0.03999996 -0.05450165 0.04999995 0.03999996 0.1491013 0.2383289 0.03999996 0.1363959 0.2398139 0.03999996 0.1615484 0.2353788 0.03999996 0.1956874 0.2182336 0.03999996 0.2054866 0.2100111 0.03999996 0.2142649 0.2007066 0.03999996 0.2219037 0.190446 0.03999996 0.2282996 0.1793679 0.03999996 0.2333662 0.1676222 0.03999996 0.2370349 0.1553678 0.03999996 0.2392562 0.1427702 0.03999996 0.24 0.1299999 0.03999996 0.2392685 0.1173357 0.03999996 0.2370839 0.1048397 0.03999996 0.2334751 0.09267842 0.03999996 0.2284902 0.08101344 0.03999996 0.2221954 0.06999999 0.03999996 0.2144411 0.05950391 0.03999996 0.2054983 0.04999995 0.03999996 0.1964295 0.04232376 0.03999996 -0.1267566 0.2599595 0.03999996 -0.1407092 0.2595581 0.03999996 -0.1128414 0.2588627 0.03999996 -0.1545384 0.2576631 0.03999996 -0.09912407 0.2562803 0.03999996 -0.08576261 0.2522418 0.03999996 -0.1680846 0.2542963 0.03999996 0.06897616 0.03847897 0.051521 0.07423216 0.03518462 0.05481529 0.08538043 0.02945595 0.06054401 0.05909669 0.04590046 0.04409945 0.06401121 0.04199153 0.04800844 0.07967144 0.03218877 0.0578112 0.08908694 -0.02789157 0.06210839 0.07965451 -0.03219747 0.05780249 0.07093697 -0.03720152 0.05279844 0.06227922 -0.04331719 0.04668271 -0.2420728 0.04699403 0.04300594 -0.2397168 0.03142571 0.04333698 -0.2382996 0.01574182 0.04353618 -0.2378266 0 0.0436027 -0.2397168 -0.03142571 0.04333698 -0.2420728 -0.04699403 0.04300594 -0.2382996 -0.01574182 0.04353618 -0.1934792 -0.04016464 0.04983526 -0.1835536 -0.03391665 0.05123025 -0.1835536 0.03391665 0.05123025 -0.1934792 0.04016464 0.04983526 -0.1373631 -0.02024668 0.05772191 -0.1498201 0.02180033 0.05597114 -0.1498201 -0.02180033 0.05597114 -0.1620237 0.02476459 0.05425608 -0.1620237 -0.02476459 0.05425608 -0.1730286 0.0287649 0.05270946 -0.1730286 -0.0287649 0.05270946 -0.1373631 0.02024668 0.05772191 -0.1248121 -0.0201224 0.05948579 -0.1248121 0.0201224 0.05948579 -0.1142812 -0.02112889 0.06096583 -0.1142812 0.02112889 0.06096583 -0.1038928 -0.02314299 0.06242585 -0.1038928 0.02314299 0.06242585 -0.09374177 -0.02614748 0.06385248 -0.09374177 0.02614748 0.06385248 -0.04999995 -0.01999998 0.06999999 -0.04999995 0.01999998 0.06999999 -0.1997366 -0.04493057 0.04506933 -0.2009032 0.04590046 0.04409945 -0.06897616 -0.03847897 0.051521 -0.07423216 -0.03518462 0.05481529 -0.08538043 -0.02945595 0.06054401 -0.05909669 -0.04590046 0.04409945 -0.06401121 -0.04199153 0.04800844 -0.07967144 -0.03218877 0.0578112 -0.08908694 0.02789157 0.06210839 -0.07965451 0.03219747 0.05780249 -0.07093697 0.03720152 0.05279844 -0.06227922 0.04331719 0.04668271</float_array>
          <technique_common>
            <accessor source="#Quadrotor_4-mesh-positions-array" count="832" stride="3">
              <param name="X" type="float"/>
              <param name="Y" type="float"/>
              <param name="Z" type="float"/>
            </accessor>
          </technique_common>
        </source>
        <source id="Quadrotor_4-mesh-normals">
          <float_array id="Quadrotor_4-mesh-normals-array" count="2565">0 0 1 0 0 -1 0.3491141 0.9370756 0.002993285 0.4367225 0.8995922 -0.002746105 0.4550995 0.8904311 0.004119396 0.5308439 0.8474614 -0.003748714 0.5549826 0.831847 0.004998445 0.6188264 0.7855278 0 0.6221413 0.7828889 -0.005013644 0.6474102 0.762095 0.008444547 0.6839978 0.7294793 -0.002626001 0.8179443 0.5752974 0 0.8051404 0.5930563 0.005784153 0.7743939 0.6326999 -0.0022704 0.7603551 0.6495077 0 0.3375428 0.941309 -0.001496911 0.2344559 0.9721252 0.001743614 0.2384464 0.9711557 0 0.7294698 0.6839901 0.005599975 0.731178 0.6821528 0.006808042 0.5549826 -0.831847 0.004998445 0.5308439 -0.8474614 -0.003748655 0.4550996 -0.8904311 0.004119575 0.4367225 -0.8995922 -0.002746045 0.3491141 -0.9370756 0.002993285 0.6839978 -0.7294793 -0.002626001 0.6474102 -0.762095 0.008444547 0.6221413 -0.7828889 -0.005013644 0.6188264 -0.7855278 0 0.7294698 -0.6839901 0.005599975 0.731178 -0.6821528 0.006808102 0.7603532 -0.6495099 0 0.7743939 -0.6326999 -0.00227046 0.8179098 -0.5752713 0.009295463 0.8051533 -0.593067 0 0.3375428 -0.941309 -0.001496911 0.2384461 -0.9711544 0.001620113 0.2344563 -0.9721267 0 -0.3491141 -0.9370756 0.002993285 -0.4367225 -0.8995922 -0.002746105 -0.4550995 -0.8904311 0.004119396 -0.5308439 -0.8474614 -0.003748714 -0.5549826 -0.831847 0.004998445 -0.6188264 -0.7855278 0 -0.6221413 -0.7828889 -0.005013644 -0.6474102 -0.762095 0.008444547 -0.6839978 -0.7294793 -0.002626001 -0.8179443 -0.5752974 0 -0.8051404 -0.5930563 0.005784153 -0.7743939 -0.6326999 -0.0022704 -0.7603551 -0.6495077 0 -0.3375428 -0.941309 -0.001496911 -0.2344559 -0.9721252 0.001743614 -0.2384464 -0.9711557 0 -0.7294698 -0.6839901 0.005599975 -0.731178 -0.6821528 0.006808042 -0.5549826 0.831847 0.004998445 -0.5308439 0.8474614 -0.003748655 -0.4550996 0.8904311 0.004119575 -0.4367225 0.8995922 -0.002746045 -0.3491141 0.9370756 0.002993285 -0.6839978 0.7294793 -0.002626001 -0.6474102 0.762095 0.008444547 -0.6221413 0.7828889 -0.005013644 -0.6188264 0.7855278 0 -0.7294698 0.6839901 0.005599975 -0.731178 0.6821528 0.006808102 -0.7603532 0.6495099 0 -0.7743939 0.6326999 -0.00227046 -0.8179098 0.5752713 0.009295463 -0.8051533 0.593067 0 -0.3375428 0.941309 -0.001496911 -0.2384461 0.9711544 0.001620113 -0.2344563 0.9721267 0 0.7071065 0.7071071 0 0.7071068 0.7071067 0 0.7071068 0.7071069 0 -0.7071069 -0.7071067 0 -0.7071067 -0.7071069 0 0 0 -1 -1.27157e-7 0 -1 2.32382e-7 0 -1 0.7071069 0.7071067 0 0.7071067 0.7071069 0 -0.7071065 -0.7071071 0 -0.7071068 -0.7071067 0 -0.7071068 -0.7071069 0 -0.7071067 0.7071068 0 -0.7071067 0.7071069 -1.64636e-6 -0.7071068 0.7071068 0 0.7071069 -0.7071067 0 0.7071069 -0.7071067 0 0.7071068 -0.7071068 0 0.7071067 -0.7071068 0 0.7071067 -0.7071069 -1.64636e-6 0.7071068 -0.7071068 0 -0.7071069 0.7071067 0 -0.7071069 0.7071067 0 -0.7071068 0.7071068 0 0 0 -1 0 0 -1 -2.26134e-6 0 -1 0 0 -1 0 0 -1 0 1 0 1 0 0 0 -1 0 -1 0 0 0 0 1 1.45519e-7 0 1 0 0 1 0.7071073 0.7071064 0 0.707107 0.7071067 5.48787e-7 0.7071059 0.7071077 1.09757e-6 0.707107 0.7071066 0 0.7071065 -0.7071071 0 0.707107 -0.7071067 0 0.7071073 -0.7071064 1.64636e-6 -0.7071073 -0.7071064 0 -0.707107 -0.7071067 5.48787e-7 -0.7071059 -0.7071077 1.09757e-6 -0.707107 -0.7071066 0 -0.7071065 0.7071071 0 -0.707107 0.7071067 0 -0.7071073 0.7071064 1.64636e-6 0.7071067 0.7071068 0 -0.7071067 -0.7071068 0 -0.7071066 0.707107 0 -0.7071067 -0.707107 0 0.7071071 -0.7071065 0 0.7071068 -0.7071067 0 0.7071071 0.7071066 0 -0.7071067 0.7071069 0 -0.7071068 0.7071067 0 -0.7071068 -0.7071068 0 -0.7071066 -0.7071071 0 0.7071066 -0.707107 0 0.7071067 0.707107 0 -0.7071071 0.7071065 0 -0.7071071 -0.7071066 0 0.7071067 -0.7071069 0 0.7071068 0.7071068 0 0.7071066 0.7071071 0 0.9896553 0.1434224 0.003531157 0.7334827 0.6796923 -0.004641652 0.8155673 0.5786592 0.001913726 0.8019116 0.5974305 -0.003825902 0.7624413 0.6470525 0.002551734 0.9626919 0.2705892 -0.0024392 0.9713636 0.2375699 0.00365889 0.981226 0.1928465 -0.002439796 -0.487088 -0.873353 0 -0.4870873 -0.8733533 0 -0.3913531 -0.9202407 0 -0.3913534 -0.9202405 0 -0.2911781 -0.9566689 0 -0.2911788 -0.9566687 0 -0.1877037 -0.9822258 0 -0.187704 -0.9822257 0 -0.08207899 -0.9966259 0 -0.08207917 -0.9966259 0 0.02446204 -0.9997007 0 0.0244621 -0.9997007 0 0.1307365 -0.9914172 0 0.2355263 -0.971868 0 0.2355256 -0.9718683 0 0.3376337 -0.9412777 0 0.4358989 -0.8999956 0 0.4359003 -0.899995 0 0.529222 -0.8484835 0 0.5292235 -0.8484825 0 0.6165302 -0.7873313 0 0.696833 -0.7172335 0 0.6968346 -0.7172318 0 0.7692165 -0.6389883 0 0.8328584 -0.5534864 0 0.8870442 -0.4616847 0 0.8870428 -0.4616873 0 0.9311475 -0.3646427 0 0.9646703 -0.2634603 0 0.9872325 -0.1592863 0 0.9872329 -0.1592831 0 0.9985792 -0.05329 0 0.998579 -0.0532934 0 0.9988499 0.04794752 0 0.9992431 0.03879576 0.002857148 0.9932272 0.1161749 -0.001764416 0.9441386 0.3295346 0.00304687 0.9371937 0.348806 -0.001521229 0.908231 0.4184654 0.001827597 0.9053505 0.4246653 0 0.8650661 0.5016579 0 0.8611561 0.5083355 -0.002301454 0.6566727 0.7541757 0 0.6470499 0.762435 -0.00441122 0.7071033 0.7071065 0.002319872 0.7334827 -0.6796923 -0.004641652 0.9896553 -0.1434224 0.003531157 0.7624413 -0.6470525 0.002551734 0.8019116 -0.5974305 -0.003825902 0.8155673 -0.5786592 0.001913726 0.981226 -0.1928465 -0.002439796 0.9713636 -0.2375699 0.00365889 0.9626919 -0.2705892 -0.0024392 0.647054 -0.7624442 0 0.6566706 -0.7541701 -0.003366649 0.7071033 -0.7071065 0.002319872 0.8650613 -0.501659 -0.002690017 0.8611599 -0.5083344 0 0.9082311 -0.4184691 0 0.90535 -0.4246608 0.002130687 0.9441402 -0.3295351 -0.002429425 0.9371838 -0.3488023 0.004863381 -0.487088 0.873353 0 -0.4870873 0.8733533 0 -0.3913531 0.9202407 0 -0.3913534 0.9202405 0 -0.2911781 0.9566689 0 -0.2911788 0.9566687 0 -0.1877037 0.9822258 0 -0.187704 0.9822257 0 -0.08207899 0.9966259 0 -0.08207917 0.9966259 0 0.02446204 0.9997007 0 0.0244621 0.9997007 0 0.1307365 0.9914172 0 0.2355263 0.971868 0 0.2355256 0.9718683 0 0.3376337 0.9412777 0 0.4358989 0.8999956 0 0.4359003 0.899995 0 0.529222 0.8484835 0 0.5292235 0.8484825 0 0.6165302 0.7873313 0 0.696833 0.7172335 0 0.6968346 0.7172318 0 0.7692165 0.6389883 0 0.8328584 0.5534864 0 0.8870442 0.4616847 0 0.8870428 0.4616873 0 0.9311475 0.3646427 0 0.9646703 0.2634603 0 0.9872325 0.1592863 0 0.9872329 0.1592831 0 0.9985792 0.05329 0 0.998579 0.0532934 0 0.9992474 -0.03879129 0 0.998847 -0.0479511 0.002311825 0.9932272 -0.1161749 -0.001764416 0.1391741 0 0.990268 0.1391718 0 0.9902683 0.139175 0 0.9902678 0.139173 0 0.9902681 0.1391729 0 0.9902681 0.1391732 0 0.9902681 0.1391739 0 0.990268 0.1391728 0 0.9902681 0.139172 0 0.9902682 0.1391717 0 0.9902682 0.139173 0 0.9902681 0.1391731 0 0.9902681 0 0 1 1.24659e-7 0 1 0 0 1 0 0 1 0 0 1 2.16224e-7 0 1 1.97811e-7 0 1 -2.28014e-7 0 1 4.6452e-7 0 1 4.21747e-7 0 1 -4.53029e-7 0 1 4.22625e-7 0 1 2.25692e-7 0 1 -2.25487e-7 0 1 -2.35701e-7 0 1 0 0 1 0 0 1 -3.08634e-7 0 1 0 0 1 -4.13923e-7 0 1 -2.31683e-7 0 1 2.34466e-7 0 1 0 0 1 0 0 1 -1.44332e-7 0 1 0 0 1 1.48249e-7 0 1 0 0 1 0 0 1 0 0 1 1.19791e-7 0 1 0 0 1 0 0 1 0 0 1 0 0 1 1.35042e-7 0 1 2.00802e-7 0 1 -4.51204e-7 0 1 -2.26245e-7 0 1 -2.2865e-7 0 1 -2.29193e-7 0 1 4.17572e-7 0 1 1.93535e-7 0 1 0 0 1 0 0 1 2.63979e-7 0 1 -2.32461e-7 0 1 2.07107e-7 0 1 4.59754e-7 0 1 2.0892e-7 0 1 4.56846e-7 0 1 2.34653e-7 0 1 -2.35131e-7 0 1 2.27347e-7 0 1 -2.23925e-7 0 1 0 0 1 0.5309283 0.8474167 3.40332e-4 0.231724 0.9727771 0.002980887 0.1900887 0.9817652 -0.001839458 0.1166586 0.9931691 0.002450585 0.09501838 0.9954751 -8.83128e-4 -0.1166579 0.9931616 0.004590153 -0.1613862 0.9868841 -0.003770411 -0.2317228 0.9727725 0.004266738 -0.2668876 0.9637219 -0.003338754 -0.3436238 0.9391 0.00372672 -0.3692734 0.9293169 -0.002691388 -0.4508328 0.8926035 0.002971231 -0.4673516 0.8840698 -0.001828074 -0.5518902 0.8339143 0.002000033 -0.05400615 0.9985327 -0.003986418 0 0.999989 0.004698157 0.02571135 0.9996693 5.65394e-4 0.02358901 0.9997218 0 0.2835482 0.958956 -0.001997947 0.3436248 0.9391031 0.002752602 0.3681239 0.9297767 -5.58477e-4 0.6454033 0.763842 5.5438e-4 0.6620185 0.749451 0.007402956 0.6224822 0.782634 1.89141e-5 0.5775583 0.8163494 -1.75367e-5 0.5518845 0.8339126 0.003635048 0.9586813 0.2844823 0 0.9850595 0.1722148 0 0.9850594 0.1722152 0 0.9983362 0.05766183 0 0.9983362 0.05766159 0 0.9586812 0.2844827 0 0.919554 0.3929637 0 0.8681979 0.4962183 0 0.8043096 0.5942106 0 0.8048374 0.5934956 -2.89975e-4 0.72828 0.6852797 2.94611e-4 0.7301062 0.6833335 -5.89021e-4 0.4825671 0.875859 -2.80487e-4 0.4296177 0.9029943 0.005484223 0.4508364 0.8926063 8.30595e-4 -0.5599774 0.8285077 -7.4837e-4 -0.6460701 0.7632778 8.26594e-4 -0.6454024 0.7638427 5.53587e-4 -0.7282788 0.6852808 -5.6402e-4 -0.7301054 0.6833345 2.81286e-4 -0.8043097 0.5942102 -2.86136e-4 -0.8048406 0.5934912 0 -0.8681959 0.4962217 0 -0.9195545 0.3929626 0 -0.9195558 0.3929594 0 -0.9586812 0.2844827 0 -0.9586803 0.2844861 0 -0.9850599 0.1722124 0 -0.9850605 0.1722088 0 -0.9983361 0.05766522 0 -0.9983358 0.05766892 0 -0.5518902 -0.8339143 0.001999974 -0.4673516 -0.8840698 -0.001828074 -0.4508328 -0.8926035 0.002971231 -0.3692733 -0.9293169 -0.002691388 -0.3436238 -0.9391 0.003726661 -0.2668876 -0.9637219 -0.003338694 -0.2317228 -0.9727725 0.004266738 -0.1613862 -0.9868841 -0.00377047 -0.1166579 -0.9931616 0.004590153 0.09501832 -0.9954751 -8.83127e-4 0.1166586 -0.9931691 0.002450585 0.1900888 -0.9817652 -0.001839458 0.231724 -0.9727771 0.002980887 0.4159091 -0.9094046 -0.001683056 0.4508336 -0.8926024 0.003194928 0.4987201 -0.8667607 -0.002062022 0.5518853 -0.8339139 0.003228485 0.02358901 -0.9997218 0 0.02571135 -0.9996693 5.65394e-4 0 -0.999989 0.004698157 -0.05400615 -0.9985327 -0.003986418 -0.5599774 -0.8285077 -7.4837e-4 -0.6454022 -0.7638425 8.13831e-4 -0.6460702 -0.7632779 5.45036e-4 -0.7301053 -0.6833344 -5.89798e-4 -0.7282789 -0.6852809 2.94137e-4 -0.8048406 -0.5934912 -2.90486e-4 -0.8043098 -0.5942103 0 -0.8681959 -0.4962217 0 -0.9195545 -0.3929626 0 -0.9195558 -0.3929594 0 -0.9586812 -0.2844827 0 -0.9586803 -0.2844861 0 -0.9850599 -0.1722124 0 -0.9850605 -0.1722088 0 -0.9983361 -0.05766522 0 -0.9983358 -0.05766892 0 0.2835482 -0.958956 -0.001997947 0.3497992 -0.9368191 0.003246486 0.343625 -0.9391044 0.002211809 0.5777879 -0.8161851 -0.001759111 0.6504139 -0.7595756 0.002604722 0.6454033 -0.763842 5.5438e-4 0.7282797 -0.6852799 -5.63128e-4 0.7301065 -0.6833333 2.81711e-4 0.8043093 -0.5942108 -2.8569e-4 0.8048375 -0.5934953 0 0.8681979 -0.4962183 0 0.919554 -0.3929637 0 0.9586812 -0.2844827 0 0.9586813 -0.2844823 0 0.9850595 -0.1722148 0 0.9850594 -0.1722152 0 0.9983362 -0.05766183 0 0.9983362 -0.05766159 0 -0.9887337 -0.1496721 -0.002046465 -0.994865 -0.1011831 0.002383768 -0.9959406 -0.09000486 -0.001187503 -0.9994285 -0.03377717 0.001353502 -0.9995489 -0.03003519 0 -0.9777209 -0.2099071 -0.001005768 -0.9857645 -0.1681202 0.002011656 -0.983823 -0.1790384 0.006136178 -0.9541239 -0.2994125 0 -0.9721653 -0.234296 0 -0.968724 -0.2480612 0.006284177 -0.9777209 0.2099072 -0.001005768 -0.9721595 0.234292 0.003645658 -0.9687421 0.2480701 0 -0.9541239 0.2994125 0 -0.9887337 0.1496721 -0.002046465 -0.985762 0.1681188 0.003088712 -0.9828981 0.1841484 8.57564e-4 -0.9959405 0.08995097 0.003406167 -0.9948668 0.1011794 -0.001693606 -0.9995479 0.03002971 0.001522481 -0.9994295 0.03377634 0 -0.1391733 0 0.9902681 -0.1391721 0 0.9902682 -0.1391731 0 0.9902682 -0.1391728 1.40665e-7 0.9902681 -0.1391733 -7.22889e-7 0.9902681 -0.139173 1.05095e-6 0.9902681 -0.139173 -1.05095e-6 0.9902681 -0.1391733 7.22889e-7 0.9902681 -0.1391728 -1.40665e-7 0.9902681 -0.1391732 0 0.9902681 -0.1391726 0 0.9902682 -0.1391724 0 0.9902682 -0.139173 0 0.9902682 -0.1391718 0 0.9902682 -0.1391738 0 0.990268 -0.1391733 0 0.9902681 -0.1391735 0 0.9902681 -0.1391726 0 0.9902682 -0.1391744 0 0.990268 -0.1391739 0 0.990268 -0.1391728 0 0.9902681 -0.139172 0 0.9902682 -0.1391714 0 0.9902683 -0.139173 0 0.9902681 -0.1391732 0 0.9902681 0 -0.7071076 0.7071061 0 -0.7071068 0.7071068 0 0.7071068 0.7071068 1.67131e-7 0.7071073 0.7071064 0 0.7071072 0.7071065 0.4867412 -0.8735463 0 0.3902827 -0.9206951 0 0.3902825 -0.9206953 0 0.2893187 -0.9572328 0 0.2893189 -0.9572328 0 0.1850124 -0.9827362 0 0.07857555 -0.9969082 0 -0.0287553 -0.9995865 0 -0.02875524 -0.9995865 0 -0.1357611 -0.9907416 0 -0.1357606 -0.9907417 0 -0.2412039 -0.9704745 0 -0.2412043 -0.9704744 0 -0.3438626 -0.93902 0 -0.3438637 -0.9390196 0 -0.4425686 -0.8967348 0 -0.4425692 -0.8967344 0 -0.536159 -0.844117 0 -0.5361598 -0.8441166 0 -0.6235683 -0.7817689 0 -0.7037927 -0.7104055 0 -0.7759081 -0.630846 0 -0.7759049 -0.63085 0 -0.8390713 -0.5440216 0 -0.8925637 -0.4509215 0 -0.892565 -0.4509189 0 -0.9357629 -0.3526301 0 -0.935764 -0.3526272 0 -0.9681766 -0.2502681 0 -0.9681774 -0.250265 0 -0.9894304 -0.1450094 0 -0.999274 -0.03809803 0 -0.9975985 0.06926327 0 -0.9975987 0.06926 0 -0.9844205 0.1758309 0 -0.984421 0.1758276 0 -0.9598968 0.280354 0 -0.9598958 0.280357 0 -0.9598958 -0.280357 0 -0.9598968 -0.280354 0 -0.984421 -0.1758276 0 -0.9844205 -0.1758309 0 -0.9975986 -0.06926047 0 -0.9975985 -0.06926381 0 -0.999274 0.03809773 0 -0.9894304 0.1450094 0 -0.9681774 0.250265 0 -0.9681766 0.2502681 0 -0.935764 0.3526272 0 -0.9357629 0.3526301 0 -0.892565 0.4509189 0 -0.8925637 0.4509215 0 -0.8390713 0.5440216 0 -0.7759049 0.63085 0 -0.7759081 0.630846 0 -0.7037927 0.7104055 0 -0.6235683 0.7817689 0 -0.5361598 0.8441166 0 -0.536159 0.844117 0 -0.4425692 0.8967344 0 -0.4425686 0.8967348 0 -0.3438637 0.9390196 0 -0.3438626 0.93902 0 -0.2412043 0.9704744 0 -0.2412039 0.9704745 0 -0.1357606 0.9907417 0 -0.1357611 0.9907416 0 -0.02875524 0.9995865 0 -0.0287553 0.9995865 0 0.07857555 0.9969082 0 0.1850124 0.9827362 0 0.2893189 0.9572328 0 0.2893187 0.9572328 0 0.3902825 0.9206953 0 0.3902827 0.9206951 0 0.4867412 0.8735463 0 -0.5309283 -0.8474167 3.40332e-4 -0.231724 -0.9727771 0.002980887 -0.1900887 -0.9817652 -0.001839458 -0.1166586 -0.9931691 0.002450585 -0.09501838 -0.9954751 -8.83128e-4 0 -0.9999995 0.001101434 0.01002407 -0.9999495 -8.55974e-4 0.1166589 -0.9931717 8.79987e-4 0.1238476 -0.9923011 -6.15123e-4 0.4508335 -0.8926061 0.00188291 -0.2835482 -0.958956 -0.001997947 -0.3436248 -0.9391031 0.002752602 -0.3681239 -0.9297767 -5.58477e-4 0.6065903 -0.7950134 -0.001395225 0.5518878 -0.8339139 0.002743065 0.5328958 -0.8461793 -0.001696705 -0.6454033 -0.763842 5.5438e-4 -0.6620185 -0.749451 0.007402956 -0.6224822 -0.782634 1.89141e-5 -0.5775583 -0.8163494 -1.75367e-5 -0.5518845 -0.8339126 0.003635048 -0.9586813 -0.2844823 0 -0.9850595 -0.1722148 0 -0.9850594 -0.1722152 0 -0.9983362 -0.05766183 0 -0.9983362 -0.05766159 0 -0.919554 -0.3929637 0 -0.8681979 -0.4962183 0 -0.8043096 -0.5942106 0 -0.8048374 -0.5934956 -2.89975e-4 -0.72828 -0.6852797 2.94611e-4 -0.7301062 -0.6833335 -5.89021e-4 -0.4825671 -0.875859 -2.80487e-4 -0.4296177 -0.9029943 0.005484223 -0.4508364 -0.8926063 8.30595e-4 0.4397201 -0.8981347 -7.61283e-4 0.3436265 -0.9391061 8.38299e-4 0.3415896 -0.9398491 3.42775e-4 0.231725 -0.9727813 -3.75402e-4 0.2359456 -0.9717661 6.80465e-4 0.9195558 -0.3929594 0 0.9586803 -0.2844861 0 0.9850599 -0.1722124 0 0.9850605 -0.1722088 0 0.9983361 -0.05766522 0 0.9983358 -0.05766892 0 0.9195545 -0.3929626 0 0.8681959 -0.4962217 0 0.8048406 -0.5934912 0 0.8043097 -0.5942102 -2.86108e-4 0.7301054 -0.6833345 2.81314e-4 0.7282788 -0.6852808 -5.63922e-4 0.6454024 -0.7638427 5.53573e-4 0.6577531 -0.7532127 0.005631208 0.4508335 0.8926061 0.00188297 0.4397201 0.8981345 -7.61318e-4 0.1166589 0.9931718 8.79958e-4 0.01002407 0.9999495 -8.55933e-4 0 0.9999995 0.001101374 -0.09501832 0.9954751 -8.83127e-4 -0.1166586 0.9931691 0.002450585 -0.1900888 0.9817652 -0.001839458 -0.231724 0.9727771 0.002980887 -0.4159091 0.9094046 -0.001683056 -0.4508336 0.8926024 0.003194928 -0.4987201 0.8667607 -0.002062022 -0.5518853 0.8339139 0.003228485 0.5328958 0.8461793 -0.001696705 0.5518878 0.8339139 0.002743065 0.6122726 0.7906447 -0.001837253 0.9195558 0.3929594 0 0.9586803 0.2844861 0 0.9850599 0.1722124 0 0.9850605 0.1722088 0 0.9983361 0.05766522 0 0.9983358 0.05766892 0 0.9195545 0.3929626 0 0.8681959 0.4962217 0 0.8043098 0.5942103 0 0.8048406 0.5934912 -2.90457e-4 0.7282824 0.6852771 2.94166e-4 0.7301071 0.6833325 -5.88229e-4 0.6655737 0.7463321 2.93874e-4 0.6453952 0.7638369 0.00426048 0.1238476 0.9923011 -6.15123e-4 0.2317244 0.9727813 6.31199e-4 0.2360826 0.971733 -3.47418e-4 0.3436263 0.9391065 3.5629e-4 0.3415241 0.9398726 8.72487e-4 -0.2835478 0.958956 -0.001997947 -0.3498001 0.9368188 0.003246784 -0.343625 0.9391044 0.002211809 -0.5777879 0.8161851 -0.001759111 -0.6504139 0.7595756 0.002604722 -0.6454033 0.763842 5.5438e-4 -0.7282797 0.6852799 -5.63128e-4 -0.7301065 0.6833333 2.81711e-4 -0.8043093 0.5942108 -2.8569e-4 -0.8048375 0.5934953 0 -0.8681979 0.4962183 0 -0.919554 0.3929637 0 -0.9586813 0.2844823 0 -0.9850595 0.1722148 0 -0.9850594 0.1722152 0 -0.9983362 0.05766183 0 -0.9983362 0.05766159 0 -0.1160908 -0.9932386 0 -0.2306225 -0.9730434 0 -0.2306217 -0.9730436 0 -0.3420158 -0.9396942 0 -0.3420169 -0.9396938 0 -0.4488007 -0.8936319 0 -0.4488 -0.8936323 0 -0.5495072 -0.835489 0 -0.549508 -0.8354885 0 -0.6427881 -0.7660442 0 -0.6427862 -0.7660456 0 -0.7273761 -0.6862391 0 -0.8021215 -0.597161 0 -0.8021197 -0.5971633 0 -0.8660263 -0.4999986 0 -0.918217 -0.3960779 0 -0.9579898 -0.2868025 0 -0.9579907 -0.2867991 0 -0.9848078 -0.1736484 0 -0.998308 -0.05814999 0 -0.9983081 -0.05814635 0 0.1160907 -0.9932386 0 0.2306233 -0.9730432 0 0.2306229 -0.9730432 0 0.3420158 -0.9396942 0 0.4487993 -0.8936327 0 0.4488 -0.8936323 0 0.5495064 -0.8354896 0 0.549506 -0.8354899 0 0.6427898 -0.7660427 0 0.6427903 -0.7660422 0 0.7273747 -0.6862405 0 0.727375 -0.6862403 0 0.8021228 -0.5971593 0 0.8021224 -0.5971599 0 0.8660255 -0.5 0 0.9182164 -0.3960795 0 0.9579893 -0.2868041 0 0.9579893 -0.2868044 0 0.9848079 -0.1736479 0 0.9848079 -0.1736477 0 0.9983082 -0.0581448 0 0.9983082 -0.05814498 0 -0.1160907 -0.9932386 0 -0.2306233 -0.9730432 0 -0.2306229 -0.9730432 0 -0.4487993 -0.8936327 0 -0.5495064 -0.8354896 0 -0.549506 -0.8354899 0 -0.6427898 -0.7660427 0 -0.6427903 -0.7660422 0 -0.7273747 -0.6862405 0 -0.727375 -0.6862403 0 -0.8021228 -0.5971593 0 -0.8021224 -0.5971599 0 -0.8660255 -0.5 0 -0.9182164 -0.3960795 0 -0.9579893 -0.2868041 0 -0.9579893 -0.2868044 0 -0.9848079 -0.1736479 0 -0.9848079 -0.1736477 0 -0.9983082 -0.0581448 0 -0.9983082 -0.05814498 0 0.1160908 -0.9932386 0 0.2306225 -0.9730434 0 0.2306217 -0.9730436 0 0.3420169 -0.9396938 0 0.4488007 -0.8936319 0 0.5495072 -0.835489 0 0.549508 -0.8354885 0 0.6427881 -0.7660442 0 0.6427862 -0.7660456 0 0.7273761 -0.6862391 0 0.8021215 -0.597161 0 0.8021197 -0.5971633 0 0.8660263 -0.4999986 0 0.918217 -0.3960779 0 0.9579898 -0.2868025 0 0.9579907 -0.2867991 0 0.9848078 -0.1736484 0 0.998308 -0.05814999 0 0.9983081 -0.05814635 0 0.1160908 0.9932386 0 0.2306225 0.9730434 0 0.2306217 0.9730436 0 0.3420158 0.9396942 0 0.3420169 0.9396938 0 0.4488007 0.8936319 0 0.4488 0.8936323 0 0.5495072 0.835489 0 0.549508 0.8354885 0 0.6427881 0.7660442 0 0.6427862 0.7660456 0 0.7273761 0.6862391 0 0.8021215 0.597161 0 0.8021197 0.5971633 0 0.8660263 0.4999986 0 0.918217 0.3960779 0 0.9579898 0.2868025 0 0.9579907 0.2867991 0 0.9848078 0.1736484 0 0.998308 0.05814999 0 0.9983081 0.05814635 0 -0.1160907 0.9932386 0 -0.2306233 0.9730432 0 -0.2306229 0.9730432 0 -0.3420158 0.9396942 0 -0.4487993 0.8936327 0 -0.4488 0.8936323 0 -0.5495064 0.8354896 0 -0.549506 0.8354899 0 -0.6427898 0.7660427 0 -0.6427903 0.7660422 0 -0.7273747 0.6862405 0 -0.727375 0.6862403 0 -0.8021228 0.5971593 0 -0.8021224 0.5971599 0 -0.8660255 0.5 0 -0.9182164 0.3960795 0 -0.9579893 0.2868041 0 -0.9579893 0.2868044 0 -0.9848079 0.1736479 0 -0.9848079 0.1736477 0 -0.9983082 0.0581448 0 -0.9983082 0.05814498 0 0.1160907 0.9932386 0 0.2306233 0.9730432 0 0.2306229 0.9730432 0 0.4487993 0.8936327 0 0.5495064 0.8354896 0 0.549506 0.8354899 0 0.6427898 0.7660427 0 0.6427903 0.7660422 0 0.7273747 0.6862405 0 0.727375 0.6862403 0 0.8021228 0.5971593 0 0.8021224 0.5971599 0 0.8660255 0.5 0 0.9182164 0.3960795 0 0.9579893 0.2868041 0 0.9579893 0.2868044 0 0.9848079 0.1736479 0 0.9848079 0.1736477 0 0.9983082 0.0581448 0 0.9983082 0.05814498 0 -0.1160908 0.9932386 0 -0.2306225 0.9730434 0 -0.2306217 0.9730436 0 -0.3420169 0.9396938 0 -0.4488007 0.8936319 0 -0.5495072 0.835489 0 -0.549508 0.8354885 0 -0.6427881 0.7660442 0 -0.6427862 0.7660456 0 -0.7273761 0.6862391 0 -0.8021215 0.597161 0 -0.8021197 0.5971633 0 -0.8660263 0.4999986 0 -0.918217 0.3960779 0 -0.9579898 0.2868025 0 -0.9579907 0.2867991 0 -0.9848078 0.1736484 0 -0.998308 0.05814999 0 -0.9983081 0.05814635 0 3.14799e-7 0.7071059 0.7071077 -1.36585e-7 0.7071068 0.7071068 5.30431e-7 0.7071068 0.7071068 -5.1565e-7 0.7071066 0.707107 0 0.7071067 0.707107 -2.52745e-7 0.7071071 0.7071065 9.2163e-7 0.7071066 0.707107 0 0.7071068 0.7071068 0 0.7071068 0.7071068 0 0.707107 0.7071066 0 0.7071067 0.7071068 -1.61583e-7 0.7071068 0.7071068 5.08678e-7 0.7071068 0.7071068 -1.27512e-6 0.7071051 0.7071086 -3.14799e-7 -0.7071059 0.7071077 1.36585e-7 -0.7071068 0.7071068 -5.30431e-7 -0.7071068 0.7071068 5.1565e-7 -0.7071066 0.707107 0 -0.7071067 0.707107 2.52745e-7 -0.7071071 0.7071065 -9.2163e-7 -0.7071066 0.707107 0 -0.7071068 0.7071068 0 -0.7071068 0.7071068 0 -0.707107 0.7071066 0 -0.7071067 0.7071068 1.61583e-7 -0.7071068 0.7071068 -5.08678e-7 -0.7071068 0.7071068 1.27511e-6 -0.7071046 0.707109</float_array>
          <technique_common>
            <accessor source="#Quadrotor_4-mesh-normals-array" count="855" stride="3">
              <param name="X" type="float"/>
              <param name="Y" type="float"/>
              <param name="Z" type="float"/>
            </accessor>
          </technique_common>
        </source>
        <vertices id="Quadrotor_4-mesh-vertices">
          <input semantic="POSITION" source="#Quadrotor_4-mesh-positions"/>
        </vertices>
        <polylist count="1680">
          <input semantic="VERTEX" source="#Quadrotor_4-mesh-vertices" offset="0"/>
          <input semantic="NORMAL" source="#Quadrotor_4-mesh-normals" offset="1"/>
          <vcount>3 3 3 3 3 3 3 3 3 3 3 3 3 3 3 3 3 3 3 3 3 3 3 3 3 3 3 3 3 3 3 3 3 3 3 3 3 3 3 3 3 3 3 3 3 3 3 3 3 3 3 3 3 3 3 3 3 3 3 3 3 3 3 3 3 3 3 3 3 3 3 3 3 3 3 3 3 3 3 3 3 3 3 3 3 3 3 3 3 3 3 3 3 3 3 3 3 3 3 3 3 3 3 3 3 3 3 3 3 3 3 3 3 3 3 3 3 3 3 3 3 3 3 3 3 3 3 3 3 3 3 3 3 3 3 3 3 3 3 3 3 3 3 3 3 3 3 3 3 3 3 3 3 3 3 3 3 3 3 3 3 3 3 3 3 3 3 3 3 3 3 3 3 3 3 3 3 3 3 3 3 3 3 3 3 3 3 3 3 3 3 3 3 3 3 3 3 3 3 3 3 3 3 3 3 3 3 3 3 3 3 3 3 3 3 3 3 3 3 3 3 3 3 3 3 3 3 3 3 3 3 3 3 3 3 3 3 3 3 3 3 3 3 3 3 3 3 3 3 3 3 3 3 3 3 3 3 3 3 3 3 3 3 3 3 3 3 3 3 3 3 3 3 3 3 3 3 3 3 3 3 3 3 3 3 3 3 3 3 3 3 3 3 3 3 3 3 3 3 3 3 3 3 3 3 3 3 3 3 3 3 3 3 3 3 3 3 3 3 3 3 3 3 3 3 3 3 3 3 3 3 3 3 3 3 3 3 3 3 3 3 3 3 3 3 3 3 3 3 3 3 3 3 3 3 3 3 3 3 3 3 3 3 3 3 3 3 3 3 3 3 3 3 3 3 3 3 3 3 3 3 3 3 3 3 3 3 3 3 3 3 3 3 3 3 3 3 3 3 3 3 3 3 3 3 3 3 3 3 3 3 3 3 3 3 3 3 3 3 3 3 3 3 3 3 3 3 3 3 3 3 3 3 3 3 3 3 3 3 3 3 3 3 3 3 3 3 3 3 3 3 3 3 3 3 3 3 3 3 3 3 3 3 3 3 3 3 3 3 3 3 3 3 3 3 3 3 3 3 3 3 3 3 3 3 3 3 3 3 3 3 3 3 3 3 3 3 3 3 3 3 3 3 3 3 3 3 3 3 3 3 3 3 3 3 3 3 3 3 3 3 3 3 3 3 3 3 3 3 3 3 3 3 3 3 3 3 3 3 3 3 3 3 3 3 3 3 3 3 3 3 3 3 3 3 3 3 3 3 3 3 3 3 3 3 3 3 3 3 3 3 3 3 3 3 3 3 3 3 3 3 3 3 3 3 3 3 3 3 3 3 3 3 3 3 3 3 3 3 3 3 3 3 3 3 3 3 3 3 3 3 3 3 3 3 3 3 3 3 3 3 3 3 3 3 3 3 3 3 3 3 3 3 3 3 3 3 3 3 3 3 3 3 3 3 3 3 3 3 3 3 3 3 3 3 3 3 3 3 3 3 3 3 3 3 3 3 3 3 3 3 3 3 3 3 3 3 3 3 3 3 3 3 3 3 3 3 3 3 3 3 3 3 3 3 3 3 3 3 3 3 3 3 3 3 3 3 3 3 3 3 3 3 3 3 3 3 3 3 3 3 3 3 3 3 3 3 3 3 3 3 3 3 3 3 3 3 3 3 3 3 3 3 3 3 3 3 3 3 3 3 3 3 3 3 3 3 3 3 3 3 3 3 3 3 3 3 3 3 3 3 3 3 3 3 3 3 3 3 3 3 3 3 3 3 3 3 3 3 3 3 3 3 3 3 3 3 3 3 3 3 3 3 3 3 3 3 3 3 3 3 3 3 3 3 3 3 3 3 3 3 3 3 3 3 3 3 3 3 3 3 3 3 3 3 3 3 3 3 3 3 3 3 3 3 3 3 3 3 3 3 3 3 3 3 3 3 3 3 3 3 3 3 3 3 3 3 3 3 3 3 3 3 3 3 3 3 3 3 3 3 3 3 3 3 3 3 3 3 3 3 3 3 3 3 3 3 3 3 3 3 3 3 3 3 3 3 3 3 3 3 3 3 3 3 3 3 3 3 3 3 3 3 3 3 3 3 3 3 3 3 3 3 3 3 3 3 3 3 3 3 3 3 3 3 3 3 3 3 3 3 3 3 3 3 3 3 3 3 3 3 3 3 3 3 3 3 3 3 3 3 3 3 3 3 3 3 3 3 3 3 3 3 3 3 3 3 3 3 3 3 3 3 3 3 3 3 3 3 3 3 3 3 3 3 3 3 3 3 3 3 3 3 3 3 3 3 3 3 3 3 3 3 3 3 3 3 3 3 3 3 3 3 3 3 3 3 3 3 3 3 3 3 3 3 3 3 3 3 3 3 3 3 3 3 3 3 3 3 3 3 3 3 3 3 3 3 3 3 3 3 3 3 3 3 3 3 3 3 3 3 3 3 3 3 3 3 3 3 3 3 3 3 3 3 3 3 3 3 3 3 3 3 3 3 3 3 3 3 3 3 3 3 3 3 3 3 3 3 3 3 3 3 3 3 3 3 3 3 3 3 3 3 3 3 3 3 3 3 3 3 3 3 3 3 3 3 3 3 3 3 3 3 3 3 3 3 3 3 3 3 3 3 3 3 3 3 3 3 3 3 3 3 3 3 3 3 3 3 3 3 3 3 3 3 3 3 3 3 3 3 3 3 3 3 3 3 3 3 3 3 3 3 3 3 3 3 3 3 3 3 3 3 3 3 3 3 3 3 3 3 3 3 3 3 3 3 3 3 3 3 3 3 3 3 3 3 3 3 3 3 3 3 3 3 3 3 3 3 3 3 3 3 3 3 3 3 3 3 3 3 3 3 3 3 3 3 3 3 3 3 3 3 3 3 3 3 3 3 3 3 3 3 3 3 3 3 3 3 3 3 3 3 3 3 3 3 3 3 3 3 3 3 3 3 3 3 3 3 3 3 3 3 3 3 3 3 3 3 3 3 3 3 3 3 3 3 3 3 3 3 3 3 3 3 3 3 3 3 3 3 3 3 3 3 3 3 3 3 3 3 3 3 3 3 3 3 3 3 3 3 3 3 3 3 3 3 3 3 3 3 3 3 3 3 3 3 3 3 3 3 3 3 3 3 3 3 3 3 3 3 3 3 3 3 3 3 3 3 3 3 3 3 3 3 3 3 3 3 3 3 3 3 3 3 3 3 3 3 3 3 3 3 3 3 3 3 3 3 3 3 3 3 3 3 3 3 3 3 3 3 3 3 3 3 3 3 3 3 3 3 3 3 3 3 3 3 3 3 3 3 3 3 3 3 3 3 3 3 3 3 3 3 3 3 3 3 3 3 3 3 3 3 3 3 3 3 3 3 3 3 3 3 3 3 3 3 3 3 3 3 3 3 3 3 3 3 3 3 3 3 3 3 3 3 3 3 3 3 3 3 3 3 3 3 3 3 3 3 3 3 3 3 3 3 3 3 3 3 3 3 3 3 3 3 3 3 3 3 3 3 3 3 3 3 3 3 3 3 3 3 3 3 3 3 3 3 3 3 3 3 3 3 3 3 3 3 3 3 3 3 3 3 3 3 3 3 3 3 3 3 3 3 3 3 3 3 3 3 3 3 3 3 3 3 3 3 3 3 3 3 3 3 3 3 3 3 3 3 3 3 3 3 3 3 3 3 3 3 3 3 3 3 3 3 3 3 3 3 3 3 3 3 3 3 3 3 3 3 3 3 3 3 3 3 3 3 3 3 3 3 3 3 3 3 3 3 3 3 3 3 3 3 3 3 3 3 3 3 3 </vcount>
          <p>0 0 1 0 2 0 2 0 1 0 3 0 2 0 3 0 4 0 4 0 3 0 5 0 4 0 5 0 6 0 6 0 5 0 7 0 8 0 9 0 10 0 10 0 9 0 11 0 10 0 11 0 12 0 12 0 11 0 13 0 12 0 13 0 14 0 14 0 13 0 15 0 16 0 17 0 18 0 18 0 17 0 19 0 18 0 19 0 11 0 11 0 19 0 13 0 10 0 12 0 20 0 20 0 12 0 21 0 20 0 21 0 22 0 22 0 21 0 23 0 22 0 23 0 24 0 24 0 23 0 25 0 24 0 25 0 26 0 26 0 25 0 27 0 26 0 27 0 28 0 28 0 27 0 29 0 28 0 29 0 30 0 30 0 29 0 31 0 30 0 31 0 32 0 32 0 31 0 33 0 32 0 33 0 34 0 34 0 33 0 35 0 34 0 35 0 36 0 36 0 35 0 37 0 36 0 37 0 38 0 38 0 37 0 39 0 38 0 39 0 3 0 3 0 39 0 5 0 2 0 4 0 40 0 40 0 4 0 41 0 40 0 41 0 42 0 42 0 41 0 43 0 44 1 45 1 46 1 46 1 45 1 47 1 46 1 47 1 48 1 48 1 47 1 49 1 48 1 49 1 50 1 50 1 49 1 51 1 50 1 51 1 52 1 52 1 51 1 53 1 52 1 53 1 54 1 54 1 53 1 55 1 54 1 55 1 56 1 56 1 55 1 57 1 56 1 57 1 58 1 45 1 44 1 59 1 59 1 44 1 60 1 59 1 60 1 61 1 61 1 60 1 62 1 61 1 62 1 63 1 63 1 62 1 64 1 63 1 64 1 65 1 65 1 64 1 66 1 65 1 66 1 67 1 67 1 66 1 68 1 67 1 68 1 69 1 69 1 68 1 70 1 69 1 70 1 71 1 71 1 70 1 72 1 71 1 72 1 73 1 73 1 72 1 74 1 73 1 74 1 75 1 48 2 24 2 46 2 22 3 24 3 48 3 50 4 22 4 48 4 20 5 22 5 50 5 52 6 20 6 50 6 76 7 10 7 20 7 76 8 20 8 52 8 76 9 52 9 54 9 76 10 54 10 77 10 16 11 18 11 58 11 58 12 18 12 56 12 18 13 11 13 56 13 56 14 11 14 78 14 24 15 26 15 46 15 46 16 26 16 28 16 46 17 28 17 44 17 77 18 54 18 78 18 78 19 54 19 56 19 38 20 68 20 66 20 66 21 36 21 38 21 36 22 66 22 64 22 64 23 34 23 36 23 34 24 64 24 62 24 79 25 80 25 70 25 79 26 70 26 68 26 79 27 68 27 38 27 79 28 38 28 3 28 80 29 81 29 70 29 70 30 81 30 72 30 81 31 2 31 72 31 72 32 2 32 40 32 40 33 42 33 72 33 72 34 42 34 74 34 34 35 62 35 32 35 32 36 62 36 60 36 32 37 60 37 30 37 65 38 35 38 63 38 37 39 35 39 65 39 67 40 37 40 65 40 39 41 37 41 67 41 69 42 39 42 67 42 82 43 5 43 39 43 82 44 39 44 69 44 82 45 69 45 71 45 82 46 71 46 83 46 43 47 41 47 75 47 75 48 41 48 73 48 41 49 4 49 73 49 73 50 4 50 84 50 35 51 33 51 63 51 63 52 33 52 31 52 63 53 31 53 61 53 83 54 71 54 84 54 84 55 71 55 73 55 21 56 51 56 49 56 49 57 23 57 21 57 23 58 49 58 47 58 47 59 25 59 23 59 25 60 47 60 45 60 85 61 86 61 53 61 85 62 53 62 51 62 85 63 51 63 21 63 85 64 21 64 12 64 86 65 87 65 53 65 53 66 87 66 55 66 87 67 13 67 55 67 55 68 13 68 19 68 19 69 17 69 55 69 55 70 17 70 57 70 25 71 45 71 27 71 27 72 45 72 59 72 27 73 59 73 29 73 88 74 89 74 1 74 1 75 89 75 79 75 1 76 79 76 3 76 81 77 90 77 2 77 2 78 90 78 91 78 91 77 0 77 2 77 90 79 81 79 89 79 89 80 81 80 80 80 89 81 80 81 79 81 87 82 92 82 13 82 13 83 92 83 93 83 13 82 93 82 15 82 94 84 95 84 14 84 14 85 95 85 85 85 14 86 85 86 12 86 82 87 96 87 5 87 5 88 96 88 97 88 5 89 97 89 7 89 98 90 99 90 6 90 6 91 99 91 84 91 6 92 84 92 4 92 76 93 100 93 10 93 10 94 100 94 101 94 10 95 101 95 8 95 102 96 103 96 9 96 9 97 103 97 78 97 9 98 78 98 11 98 86 1 85 1 87 1 87 1 85 1 95 1 87 99 95 99 92 99 99 100 96 100 84 100 84 1 96 1 82 1 84 101 82 101 83 101 77 1 78 1 76 1 76 102 78 102 103 102 76 103 103 103 100 103 57 104 17 104 58 104 58 104 17 104 16 104 60 105 44 105 30 105 30 105 44 105 28 105 74 106 42 106 75 106 75 106 42 106 43 106 59 107 61 107 29 107 29 107 61 107 31 107 104 0 99 0 105 0 105 0 99 0 98 0 105 108 98 108 106 108 106 0 98 0 97 0 106 0 97 0 107 0 107 0 97 0 96 0 92 0 108 0 93 0 93 0 108 0 109 0 93 0 109 0 94 0 94 0 109 0 110 0 94 0 110 0 95 0 95 0 110 0 111 0 100 0 112 0 101 0 101 0 112 0 113 0 101 0 113 0 102 0 102 0 113 0 114 0 102 0 114 0 103 0 103 0 114 0 115 0 116 0 89 0 117 0 117 0 89 0 88 0 117 0 88 0 118 0 118 109 88 109 91 109 118 110 91 110 119 110 119 0 91 0 90 0 120 111 107 111 96 111 120 112 96 112 99 112 120 113 99 113 104 113 120 114 104 114 121 114 122 115 108 115 92 115 122 116 92 116 95 116 122 117 95 117 111 117 122 95 111 95 123 95 124 118 112 118 100 118 124 119 100 119 103 119 124 120 103 120 115 120 124 121 115 121 125 121 126 122 119 122 90 122 126 123 90 123 89 123 126 124 89 124 116 124 126 89 116 89 127 89 102 125 9 125 101 125 101 125 9 125 8 125 93 87 94 87 15 87 15 87 94 87 14 87 97 126 98 126 7 126 7 126 98 126 6 126 88 93 1 93 91 93 1 93 0 93 91 93 120 1 121 1 128 1 128 1 121 1 129 1 128 127 106 127 120 127 120 87 106 87 107 87 129 77 105 77 128 77 128 128 105 128 106 128 121 129 104 129 129 129 129 130 104 130 105 130 123 1 130 1 122 1 122 1 130 1 131 1 131 82 109 82 122 82 122 131 109 131 108 131 130 132 110 132 131 132 131 133 110 133 109 133 123 134 111 134 130 134 130 135 111 135 110 135 132 1 133 1 125 1 125 1 133 1 124 1 133 136 113 136 124 136 124 93 113 93 112 93 132 82 114 82 133 82 133 137 114 137 113 137 125 138 115 138 132 138 132 133 115 133 114 133 127 1 134 1 126 1 126 1 134 1 135 1 135 77 118 77 126 77 126 139 118 139 119 139 134 140 117 140 135 140 135 130 117 130 118 130 127 141 116 141 134 141 134 142 116 142 117 142 136 143 137 143 138 143 139 144 140 144 141 144 142 145 143 145 144 145 142 146 144 146 139 146 142 147 139 147 141 147 145 148 146 148 147 148 145 149 147 149 138 149 145 150 138 150 137 150 148 151 149 151 150 151 150 152 149 152 151 152 150 153 151 153 152 153 152 154 151 154 153 154 152 155 153 155 154 155 154 156 153 156 155 156 154 157 155 157 156 157 156 158 155 158 157 158 156 159 157 159 158 159 158 160 157 160 159 160 158 161 159 161 160 161 160 162 159 162 161 162 160 163 161 163 162 163 162 163 161 163 163 163 162 164 163 164 164 164 164 165 163 165 165 165 164 166 165 166 166 166 166 166 165 166 167 166 166 167 167 167 168 167 168 168 167 168 169 168 168 169 169 169 170 169 170 170 169 170 171 170 170 171 171 171 172 171 172 171 171 171 173 171 172 172 173 172 174 172 174 173 173 173 175 173 174 174 175 174 176 174 176 174 175 174 177 174 176 175 177 175 178 175 178 175 177 175 179 175 178 176 179 176 180 176 180 177 179 177 181 177 180 178 181 178 182 178 182 178 181 178 183 178 182 179 183 179 184 179 184 179 183 179 185 179 184 180 185 180 186 180 186 181 185 181 187 181 186 182 187 182 188 182 188 183 187 183 189 183 188 184 189 184 136 184 136 185 189 185 190 185 136 186 190 186 137 186 147 187 146 187 191 187 191 188 146 188 192 188 191 189 192 189 193 189 193 190 192 190 194 190 193 191 194 191 143 191 143 192 194 192 144 192 195 193 196 193 140 193 140 194 196 194 197 194 140 195 197 195 141 195 198 196 199 196 200 196 201 197 202 197 203 197 204 198 200 198 199 198 204 199 199 199 205 199 204 200 205 200 206 200 207 201 203 201 202 201 207 202 202 202 208 202 207 203 208 203 209 203 210 204 211 204 212 204 212 205 211 205 198 205 212 206 198 206 200 206 206 207 205 207 213 207 213 208 205 208 214 208 213 209 214 209 215 209 215 210 214 210 216 210 215 211 216 211 208 211 208 212 216 212 209 212 217 213 218 213 219 213 219 214 218 214 220 214 219 215 220 215 221 215 221 216 220 216 222 216 221 217 222 217 223 217 223 218 222 218 224 218 223 219 224 219 225 219 225 220 224 220 226 220 225 221 226 221 227 221 227 222 226 222 228 222 227 223 228 223 229 223 229 224 228 224 230 224 229 225 230 225 231 225 231 225 230 225 232 225 231 226 232 226 233 226 233 227 232 227 234 227 233 228 234 228 235 228 235 228 234 228 236 228 235 229 236 229 237 229 237 230 236 230 238 230 237 231 238 231 239 231 239 232 238 232 240 232 239 233 240 233 241 233 241 233 240 233 242 233 241 234 242 234 243 234 243 235 242 235 244 235 243 236 244 236 245 236 245 236 244 236 246 236 245 237 246 237 247 237 247 237 246 237 248 237 247 238 248 238 249 238 249 239 248 239 250 239 249 240 250 240 251 240 251 240 250 240 252 240 251 241 252 241 253 241 253 241 252 241 254 241 253 242 254 242 255 242 255 243 254 243 256 243 255 244 256 244 257 244 257 245 256 245 258 245 257 246 258 246 259 246 259 247 258 247 201 247 259 248 201 248 203 248 260 106 261 106 148 106 148 106 261 106 149 106 262 104 218 104 263 104 263 104 218 104 217 104 264 1 265 1 266 1 265 1 267 1 266 1 268 1 149 1 261 1 269 1 270 1 271 1 241 1 272 1 273 1 195 1 140 1 274 1 195 1 274 1 275 1 195 1 275 1 276 1 195 1 276 1 277 1 195 1 277 1 278 1 195 1 278 1 279 1 195 1 279 1 280 1 195 1 280 1 281 1 195 1 281 1 282 1 195 1 282 1 211 1 263 1 217 1 283 1 263 1 283 1 284 1 263 1 284 1 285 1 286 1 287 1 288 1 286 1 288 1 289 1 286 1 289 1 290 1 291 1 292 1 293 1 291 1 293 1 268 1 291 1 268 1 261 1 291 1 261 1 294 1 291 1 294 1 295 1 291 1 295 1 296 1 291 1 296 1 297 1 298 1 299 1 300 1 298 1 300 1 301 1 298 1 301 1 302 1 284 1 303 1 304 1 284 1 304 1 305 1 284 1 305 1 285 1 149 1 157 1 155 1 149 1 155 1 153 1 149 1 153 1 151 1 306 1 307 1 169 1 306 1 169 1 167 1 306 1 167 1 165 1 306 1 165 1 163 1 306 1 163 1 161 1 217 1 219 1 221 1 217 1 221 1 223 1 217 1 223 1 225 1 308 1 229 1 231 1 308 1 231 1 233 1 308 1 233 1 235 1 308 1 235 1 237 1 308 1 237 1 239 1 308 1 239 1 309 1 267 1 265 1 310 1 267 1 310 1 311 1 267 1 311 1 312 1 267 1 312 1 269 1 267 1 269 1 271 1 313 1 314 1 315 1 313 1 315 1 316 1 313 1 316 1 317 1 313 1 317 1 318 1 313 1 318 1 319 1 313 1 319 1 320 1 297 1 321 1 291 1 291 1 321 1 322 1 321 1 287 1 322 1 322 1 287 1 286 1 323 1 324 1 325 1 325 1 324 1 264 1 325 1 264 1 319 1 319 1 264 1 266 1 319 1 266 1 320 1 284 1 326 1 303 1 303 1 326 1 327 1 326 1 298 1 327 1 327 1 298 1 302 1 161 1 159 1 306 1 306 1 159 1 268 1 159 1 157 1 268 1 268 1 157 1 149 1 324 1 323 1 328 1 328 1 323 1 279 1 328 1 279 1 278 1 308 1 283 1 229 1 229 1 283 1 227 1 283 1 217 1 227 1 227 1 217 1 225 1 329 1 330 1 331 1 331 1 330 1 298 1 331 1 298 1 326 1 332 1 333 1 334 1 334 1 333 1 330 1 334 1 330 1 329 1 335 1 336 1 337 1 337 1 336 1 338 1 337 1 338 1 339 1 339 1 338 1 340 1 339 1 340 1 341 1 341 1 340 1 333 1 341 1 333 1 332 1 342 1 343 1 344 1 344 1 343 1 345 1 344 1 345 1 346 1 346 1 345 1 347 1 346 1 347 1 348 1 348 1 347 1 349 1 348 1 349 1 350 1 350 1 349 1 351 1 350 1 351 1 352 1 352 1 351 1 353 1 352 1 353 1 354 1 354 1 353 1 355 1 354 1 355 1 356 1 356 1 355 1 357 1 356 1 357 1 358 1 358 1 357 1 359 1 358 1 359 1 360 1 360 1 359 1 336 1 360 1 336 1 335 1 361 1 362 1 363 1 363 1 362 1 343 1 363 1 343 1 342 1 315 1 314 1 364 1 364 1 314 1 362 1 364 1 362 1 361 1 365 1 366 1 367 1 367 1 366 1 271 1 367 1 271 1 270 1 368 1 369 1 370 1 370 1 369 1 366 1 370 1 366 1 365 1 371 1 372 1 373 1 373 1 372 1 374 1 373 1 374 1 375 1 375 1 374 1 376 1 375 1 376 1 377 1 377 1 376 1 378 1 377 1 378 1 379 1 379 1 378 1 380 1 379 1 380 1 381 1 381 1 380 1 382 1 381 1 382 1 383 1 383 1 382 1 384 1 383 1 384 1 385 1 385 1 384 1 386 1 385 1 386 1 387 1 387 1 386 1 388 1 387 1 388 1 389 1 389 1 388 1 369 1 389 1 369 1 368 1 390 1 391 1 392 1 392 1 391 1 393 1 392 1 393 1 394 1 394 1 393 1 395 1 394 1 395 1 396 1 396 1 395 1 372 1 396 1 372 1 371 1 322 1 286 1 397 1 397 1 286 1 391 1 397 1 391 1 390 1 398 1 399 1 400 1 400 1 399 1 401 1 400 1 401 1 402 1 402 1 401 1 403 1 402 1 403 1 404 1 404 1 403 1 405 1 404 1 405 1 406 1 406 1 405 1 407 1 406 1 407 1 408 1 408 1 407 1 409 1 408 1 409 1 410 1 410 1 409 1 411 1 410 1 411 1 412 1 412 1 411 1 413 1 412 1 413 1 414 1 414 1 413 1 415 1 414 1 415 1 416 1 416 1 415 1 417 1 416 1 417 1 418 1 418 1 417 1 419 1 418 1 419 1 420 1 420 1 419 1 421 1 420 1 421 1 422 1 422 1 421 1 284 1 422 1 284 1 283 1 399 1 398 1 423 1 423 1 398 1 424 1 423 1 424 1 425 1 425 1 424 1 426 1 425 1 426 1 427 1 427 1 426 1 428 1 427 1 428 1 429 1 429 1 428 1 430 1 429 1 430 1 431 1 431 1 430 1 16 1 431 1 16 1 17 1 17 1 16 1 432 1 17 1 432 1 433 1 433 1 432 1 434 1 433 1 434 1 435 1 435 1 434 1 436 1 435 1 436 1 437 1 437 1 436 1 438 1 437 1 438 1 439 1 439 1 438 1 440 1 439 1 440 1 441 1 441 1 440 1 442 1 441 1 442 1 443 1 443 1 442 1 444 1 443 1 444 1 445 1 445 1 444 1 323 1 445 1 323 1 325 1 446 1 447 1 448 1 448 1 447 1 449 1 448 1 449 1 450 1 450 1 449 1 451 1 450 1 451 1 452 1 452 1 451 1 43 1 452 1 43 1 42 1 42 1 43 1 453 1 42 1 453 1 454 1 454 1 453 1 455 1 454 1 455 1 456 1 456 1 455 1 457 1 456 1 457 1 458 1 458 1 457 1 459 1 458 1 459 1 460 1 460 1 459 1 461 1 460 1 461 1 462 1 462 1 461 1 463 1 462 1 463 1 464 1 464 1 463 1 465 1 464 1 465 1 466 1 466 1 465 1 324 1 466 1 324 1 328 1 447 1 446 1 467 1 467 1 446 1 468 1 467 1 468 1 469 1 469 1 468 1 470 1 469 1 470 1 471 1 471 1 470 1 472 1 471 1 472 1 473 1 473 1 472 1 474 1 473 1 474 1 475 1 475 1 474 1 476 1 475 1 476 1 477 1 477 1 476 1 478 1 477 1 478 1 479 1 479 1 478 1 480 1 479 1 480 1 481 1 481 1 480 1 482 1 481 1 482 1 483 1 483 1 482 1 484 1 483 1 484 1 485 1 485 1 484 1 486 1 485 1 486 1 487 1 487 1 486 1 488 1 487 1 488 1 489 1 489 1 488 1 490 1 489 1 490 1 491 1 491 1 490 1 293 1 491 1 293 1 292 1 309 1 239 1 492 1 492 1 239 1 241 1 492 1 241 1 273 1 493 1 494 1 249 1 249 1 494 1 495 1 249 1 495 1 247 1 247 1 495 1 496 1 247 1 496 1 245 1 245 1 496 1 497 1 245 1 497 1 243 1 243 1 497 1 272 1 243 1 272 1 241 1 207 1 498 1 203 1 203 1 498 1 499 1 203 1 499 1 259 1 259 1 499 1 500 1 259 1 500 1 257 1 257 1 500 1 501 1 257 1 501 1 255 1 255 1 501 1 502 1 255 1 502 1 253 1 253 1 502 1 503 1 253 1 503 1 251 1 251 1 503 1 493 1 251 1 493 1 249 1 504 1 505 1 198 1 198 1 505 1 506 1 198 1 506 1 199 1 199 1 506 1 507 1 199 1 507 1 205 1 205 1 507 1 508 1 205 1 508 1 214 1 214 1 508 1 509 1 214 1 509 1 216 1 216 1 509 1 510 1 216 1 510 1 209 1 209 1 510 1 498 1 209 1 498 1 207 1 504 1 198 1 282 1 282 1 198 1 211 1 511 1 512 1 139 1 139 1 512 1 274 1 139 1 274 1 140 1 190 1 513 1 137 1 137 1 513 1 514 1 137 1 514 1 145 1 145 1 514 1 515 1 145 1 515 1 146 1 146 1 515 1 516 1 146 1 516 1 192 1 192 1 516 1 517 1 192 1 517 1 194 1 194 1 517 1 518 1 194 1 518 1 144 1 144 1 518 1 511 1 144 1 511 1 139 1 519 1 520 1 179 1 179 1 520 1 521 1 179 1 521 1 181 1 181 1 521 1 522 1 181 1 522 1 183 1 183 1 522 1 523 1 183 1 523 1 185 1 185 1 523 1 524 1 185 1 524 1 187 1 187 1 524 1 525 1 187 1 525 1 189 1 189 1 525 1 513 1 189 1 513 1 190 1 526 1 527 1 171 1 171 1 527 1 528 1 171 1 528 1 173 1 173 1 528 1 529 1 173 1 529 1 175 1 175 1 529 1 530 1 175 1 530 1 177 1 177 1 530 1 519 1 177 1 519 1 179 1 307 1 526 1 169 1 169 1 526 1 171 1 531 249 532 249 533 249 533 250 532 250 534 250 533 251 534 251 535 251 535 252 534 252 536 252 535 253 536 253 537 253 532 254 531 254 538 254 538 255 531 255 539 255 538 256 539 256 540 256 540 257 539 257 541 257 540 258 541 258 542 258 542 259 541 259 543 259 542 260 543 260 544 260 534 106 545 106 536 106 536 106 545 106 546 106 535 104 537 104 547 104 547 104 537 104 548 104 549 261 550 261 197 261 551 0 552 0 553 0 260 0 148 0 554 0 260 0 554 0 555 0 260 0 555 0 552 0 260 262 552 262 551 262 260 263 551 263 556 263 260 264 556 264 557 264 148 0 150 0 554 0 554 265 150 265 168 265 554 266 168 266 558 266 558 0 168 0 170 0 558 0 170 0 559 0 560 0 196 0 561 0 561 0 196 0 546 0 561 0 546 0 545 0 549 0 197 0 562 0 562 267 197 267 196 267 562 0 196 0 560 0 197 0 550 0 141 0 141 0 550 0 563 0 141 0 563 0 142 0 142 0 563 0 564 0 142 0 564 0 143 0 143 0 564 0 565 0 143 268 565 268 193 268 193 0 565 0 566 0 193 0 566 0 191 0 191 0 566 0 567 0 191 0 567 0 147 0 147 0 567 0 568 0 147 0 568 0 138 0 138 0 568 0 569 0 138 0 569 0 136 0 136 0 569 0 570 0 136 269 570 269 188 269 188 0 570 0 571 0 188 0 571 0 186 0 186 0 571 0 572 0 186 270 572 270 184 270 184 271 572 271 573 271 184 272 573 272 182 272 182 0 573 0 574 0 182 0 574 0 180 0 180 273 574 273 575 273 180 0 575 0 178 0 178 274 575 274 576 274 178 0 576 0 577 0 178 0 577 0 176 0 176 275 577 275 578 275 176 0 578 0 174 0 174 0 578 0 579 0 174 0 579 0 172 0 172 0 579 0 580 0 172 0 580 0 170 0 170 0 580 0 581 0 170 0 581 0 559 0 582 0 583 0 584 0 584 0 583 0 585 0 584 0 585 0 586 0 586 0 585 0 587 0 586 0 587 0 588 0 588 0 587 0 589 0 588 0 589 0 590 0 590 0 589 0 591 0 590 0 591 0 592 0 592 0 591 0 593 0 592 0 593 0 594 0 594 0 593 0 595 0 594 0 595 0 596 0 596 0 595 0 597 0 596 0 597 0 598 0 598 0 597 0 599 0 598 0 599 0 600 0 600 0 599 0 601 0 600 0 601 0 602 0 602 0 601 0 603 0 602 0 603 0 604 0 604 0 603 0 605 0 604 0 605 0 606 0 606 0 605 0 607 0 606 0 607 0 608 0 608 0 607 0 609 0 608 0 609 0 610 0 610 0 609 0 611 0 610 0 611 0 612 0 612 0 611 0 613 0 612 0 613 0 614 0 614 0 613 0 615 0 614 0 615 0 616 0 616 0 615 0 617 0 616 0 617 0 618 0 618 0 617 0 619 0 618 0 619 0 620 0 620 0 619 0 621 0 620 0 621 0 555 0 555 0 621 0 552 0 557 0 556 0 622 0 622 276 556 276 623 276 622 277 623 277 624 277 624 0 623 0 625 0 625 0 623 0 626 0 625 0 626 0 627 0 627 0 626 0 628 0 629 0 630 0 631 0 631 0 630 0 632 0 631 0 632 0 633 0 633 0 632 0 634 0 633 0 634 0 635 0 635 278 634 278 636 278 635 279 636 279 637 279 637 0 636 0 638 0 638 0 636 0 639 0 638 0 639 0 640 0 640 0 639 0 641 0 640 0 641 0 642 0 642 0 641 0 643 0 642 0 643 0 644 0 644 280 643 280 645 280 644 0 645 0 646 0 646 0 645 0 647 0 646 281 647 281 648 281 648 0 647 0 649 0 648 0 649 0 650 0 650 0 649 0 651 0 650 282 651 282 652 282 652 0 651 0 653 0 652 283 653 283 654 283 654 0 653 0 655 0 654 284 655 284 656 284 656 0 655 0 657 0 657 0 655 0 658 0 657 0 658 0 659 0 659 0 658 0 660 0 659 285 660 285 661 285 661 0 660 0 662 0 661 286 662 286 663 286 663 0 662 0 664 0 664 287 662 287 551 287 664 0 551 0 553 0 168 0 150 0 166 0 166 0 150 0 152 0 166 288 152 288 164 288 164 289 152 289 154 289 164 290 154 290 162 290 162 291 154 291 156 291 162 292 156 292 160 292 160 0 156 0 158 0 665 0 666 0 667 0 665 0 667 0 668 0 669 0 665 0 668 0 670 293 671 293 672 293 673 294 674 294 242 294 210 295 212 295 675 295 210 296 675 296 676 296 210 0 676 0 677 0 210 0 677 0 548 0 262 264 678 264 679 264 262 263 679 263 667 263 262 262 667 262 666 262 262 0 666 0 680 0 262 0 680 0 218 0 548 0 677 0 681 0 548 0 681 0 682 0 548 0 682 0 547 0 671 0 670 0 668 0 668 0 670 0 683 0 668 0 683 0 669 0 672 0 671 0 684 0 684 0 671 0 685 0 684 0 685 0 686 0 686 297 685 297 687 297 686 284 687 284 688 284 688 0 687 0 689 0 688 283 689 283 690 283 690 0 689 0 691 0 691 0 689 0 692 0 691 0 692 0 693 0 693 0 692 0 694 0 693 298 694 298 695 298 695 0 694 0 696 0 695 0 696 0 697 0 697 0 696 0 698 0 697 299 698 299 699 299 699 0 698 0 700 0 699 300 700 300 701 300 701 0 700 0 702 0 701 301 702 301 703 301 703 302 702 302 704 302 703 0 704 0 705 0 705 0 704 0 706 0 705 279 706 279 707 279 707 278 706 278 708 278 707 0 708 0 709 0 709 0 708 0 710 0 710 303 708 303 711 303 710 0 711 0 712 0 712 0 711 0 713 0 230 0 228 0 232 0 232 304 228 304 226 304 232 0 226 0 234 0 234 0 226 0 224 0 234 0 224 0 236 0 236 305 224 305 222 305 236 0 222 0 238 0 238 0 222 0 220 0 238 0 220 0 680 0 680 0 220 0 218 0 680 0 666 0 714 0 714 0 666 0 715 0 714 0 715 0 716 0 716 0 715 0 717 0 716 0 717 0 718 0 718 0 717 0 719 0 718 0 719 0 720 0 720 0 719 0 721 0 720 0 721 0 722 0 722 0 721 0 723 0 722 0 723 0 724 0 724 0 723 0 725 0 724 0 725 0 726 0 726 0 725 0 727 0 726 0 727 0 728 0 728 0 727 0 729 0 728 0 729 0 730 0 730 0 729 0 731 0 730 0 731 0 732 0 732 0 731 0 733 0 732 0 733 0 734 0 734 0 733 0 735 0 734 0 735 0 736 0 736 0 735 0 737 0 736 0 737 0 738 0 738 0 737 0 739 0 738 0 739 0 740 0 740 0 739 0 741 0 740 0 741 0 742 0 742 0 741 0 743 0 742 0 743 0 744 0 744 0 743 0 745 0 744 0 745 0 746 0 746 0 745 0 747 0 746 0 747 0 748 0 748 0 747 0 749 0 748 0 749 0 750 0 750 0 749 0 751 0 750 0 751 0 752 0 752 0 751 0 753 0 754 0 240 0 755 0 755 0 240 0 238 0 755 0 238 0 680 0 673 0 242 0 756 0 756 0 242 0 240 0 756 0 240 0 754 0 242 0 674 0 244 0 244 0 674 0 757 0 244 0 757 0 246 0 246 0 757 0 758 0 246 0 758 0 248 0 248 0 758 0 759 0 248 0 759 0 250 0 250 306 759 306 760 306 250 307 760 307 761 307 250 308 761 308 252 308 252 0 761 0 762 0 252 0 762 0 254 0 254 309 762 309 763 309 254 310 763 310 256 310 256 0 763 0 764 0 256 0 764 0 258 0 258 0 764 0 765 0 258 0 765 0 201 0 201 311 765 311 766 311 201 312 766 312 202 312 202 0 766 0 767 0 202 313 767 313 208 313 208 314 767 314 768 314 208 0 768 0 215 0 215 0 768 0 769 0 215 0 769 0 213 0 213 0 769 0 770 0 213 0 770 0 206 0 206 315 770 315 771 315 206 0 771 0 204 0 204 0 771 0 772 0 204 0 772 0 200 0 200 0 772 0 773 0 200 0 773 0 212 0 212 0 773 0 675 0 774 0 775 0 776 0 776 0 775 0 777 0 776 0 777 0 778 0 778 0 777 0 779 0 779 0 777 0 780 0 779 0 780 0 678 0 678 316 780 316 679 316 195 105 211 105 210 105 195 105 210 105 548 105 195 105 548 105 546 105 195 105 546 105 196 105 546 105 548 105 536 105 536 105 548 105 537 105 781 317 782 317 438 317 539 318 444 318 442 318 531 319 444 319 539 319 323 320 444 320 531 320 533 321 323 321 531 321 280 322 279 322 682 322 681 323 280 323 682 323 281 324 280 324 681 324 677 325 281 325 681 325 282 326 281 326 677 326 676 327 282 327 677 327 504 328 282 328 676 328 675 329 504 329 676 329 505 330 504 330 675 330 547 331 682 331 279 331 547 332 279 332 323 332 547 333 323 333 533 333 547 334 533 334 535 334 541 335 539 335 442 335 541 336 442 336 440 336 541 337 440 337 783 337 436 338 434 338 752 338 436 339 752 339 784 339 436 340 784 340 785 340 436 341 785 341 781 341 436 342 781 342 438 342 744 343 426 343 742 343 742 344 426 344 424 344 742 345 424 345 740 345 740 346 424 346 398 346 740 347 398 347 738 347 426 348 744 348 428 348 428 349 744 349 746 349 428 349 746 349 430 349 430 350 746 350 748 350 430 350 748 350 16 350 16 351 748 351 750 351 16 352 750 352 432 352 432 353 750 353 752 353 432 354 752 354 434 354 782 355 786 355 438 355 438 356 786 356 783 356 438 357 783 357 440 357 675 358 773 358 505 358 505 359 773 359 772 359 505 360 772 360 506 360 506 361 772 361 771 361 506 362 771 362 507 362 507 363 771 363 770 363 507 364 770 364 508 364 508 365 770 365 769 365 508 365 769 365 509 365 509 366 769 366 768 366 509 367 768 367 510 367 510 368 768 368 767 368 510 369 767 369 498 369 498 370 767 370 766 370 498 371 766 371 499 371 499 372 766 372 765 372 499 373 765 373 500 373 550 374 274 374 512 374 274 375 550 375 549 375 549 376 275 376 274 376 275 377 549 377 562 377 562 378 276 378 275 378 276 379 562 379 560 379 560 380 277 380 276 380 277 381 560 381 561 381 561 382 278 382 277 382 328 383 532 383 538 383 538 384 466 384 328 384 466 385 538 385 540 385 540 386 464 386 466 386 462 387 787 387 788 387 788 388 460 388 462 388 789 389 460 389 788 389 458 390 460 390 789 390 545 391 534 391 532 391 545 392 532 392 328 392 545 393 328 393 278 393 545 394 278 394 561 394 550 395 512 395 563 395 563 396 512 396 511 396 563 397 511 397 564 397 564 398 511 398 518 398 564 399 518 399 565 399 565 400 518 400 517 400 565 401 517 401 566 401 566 402 517 402 516 402 566 402 516 402 567 402 567 403 516 403 515 403 567 404 515 404 568 404 568 405 515 405 514 405 568 406 514 406 569 406 569 407 514 407 513 407 569 408 513 408 570 408 570 409 513 409 525 409 570 410 525 410 571 410 540 411 542 411 464 411 464 412 542 412 787 412 464 413 787 413 462 413 789 414 790 414 458 414 458 415 790 415 582 415 458 416 582 416 456 416 456 417 582 417 584 417 456 418 584 418 454 418 454 419 584 419 586 419 454 420 586 420 42 420 42 421 586 421 588 421 42 421 588 421 452 421 452 422 588 422 590 422 452 422 590 422 450 422 450 423 590 423 592 423 450 424 592 424 448 424 448 425 592 425 594 425 448 426 594 426 446 426 446 427 594 427 596 427 446 428 596 428 468 428 791 429 314 429 792 429 792 430 314 430 313 430 792 431 313 431 793 431 793 432 313 432 320 432 793 433 320 433 794 433 711 434 362 434 713 434 713 435 362 435 314 435 713 436 314 436 791 436 345 437 343 437 706 437 706 437 343 437 708 437 343 438 362 438 708 438 708 439 362 439 711 439 630 440 271 440 632 440 632 441 271 441 366 441 632 442 366 442 634 442 634 443 366 443 369 443 634 443 369 443 636 443 795 444 267 444 796 444 796 445 267 445 271 445 796 446 271 446 630 446 795 447 797 447 267 447 267 448 797 448 266 448 797 449 794 449 266 449 266 450 794 450 320 450 798 451 799 451 800 451 798 452 800 452 801 452 798 453 801 453 794 453 798 454 794 454 797 454 798 455 797 455 795 455 798 456 795 456 796 456 801 457 791 457 792 457 801 458 792 458 793 458 801 459 793 459 794 459 802 460 803 460 804 460 804 461 803 461 805 461 804 462 805 462 806 462 806 463 805 463 807 463 806 464 807 464 808 464 808 465 807 465 800 465 808 466 800 466 799 466 803 467 802 467 809 467 809 468 802 468 810 468 809 451 810 451 811 451 811 469 810 469 812 469 811 460 812 460 813 460 813 470 812 470 814 470 813 471 814 471 815 471 815 472 814 472 816 472 815 473 816 473 817 473 817 474 816 474 818 474 817 475 818 475 819 475 630 476 629 476 796 476 796 477 629 477 820 477 796 476 820 476 798 476 712 478 713 478 821 478 821 479 713 479 791 479 821 480 791 480 801 480 261 481 260 481 294 481 294 481 260 481 557 481 294 482 557 482 295 482 295 483 557 483 622 483 295 484 622 484 296 484 296 485 622 485 624 485 296 486 624 486 297 486 297 486 624 486 625 486 297 487 625 487 321 487 321 487 625 487 627 487 321 488 627 488 287 488 287 489 627 489 628 489 287 490 628 490 288 490 288 491 628 491 626 491 288 492 626 492 289 492 289 493 626 493 623 493 289 494 623 494 290 494 290 495 623 495 556 495 290 496 556 496 286 496 286 497 556 497 551 497 286 498 551 498 391 498 391 499 551 499 662 499 391 500 662 500 393 500 393 500 662 500 660 500 393 501 660 501 395 501 395 501 660 501 658 501 395 502 658 502 372 502 372 503 658 503 655 503 372 504 655 504 374 504 374 504 655 504 653 504 374 505 653 505 376 505 376 506 653 506 651 506 376 507 651 507 378 507 378 508 651 508 649 508 378 509 649 509 380 509 380 510 649 510 647 510 380 511 647 511 382 511 382 511 647 511 645 511 382 512 645 512 384 512 384 512 645 512 643 512 384 513 643 513 386 513 386 514 643 514 641 514 386 515 641 515 388 515 388 516 641 516 639 516 388 517 639 517 369 517 369 518 639 518 636 518 345 519 706 519 347 519 347 520 706 520 704 520 347 521 704 521 349 521 349 522 704 522 702 522 349 523 702 523 351 523 351 524 702 524 700 524 351 525 700 525 353 525 353 525 700 525 698 525 353 526 698 526 355 526 355 526 698 526 696 526 355 527 696 527 357 527 357 528 696 528 694 528 357 529 694 529 359 529 359 530 694 530 692 530 359 531 692 531 336 531 336 532 692 532 689 532 336 533 689 533 338 533 338 533 689 533 687 533 338 534 687 534 340 534 340 535 687 535 685 535 340 536 685 536 333 536 333 536 685 536 671 536 333 537 671 537 330 537 330 537 671 537 668 537 330 538 668 538 298 538 298 539 668 539 667 539 298 540 667 540 299 540 299 541 667 541 679 541 299 542 679 542 300 542 300 543 679 543 780 543 300 544 780 544 301 544 301 545 780 545 777 545 301 546 777 546 302 546 302 547 777 547 775 547 302 548 775 548 327 548 327 549 775 549 774 549 327 550 774 550 303 550 303 550 774 550 776 550 303 551 776 551 304 551 304 551 776 551 778 551 304 552 778 552 305 552 305 553 778 553 779 553 305 554 779 554 285 554 285 555 779 555 678 555 285 556 678 556 263 556 263 556 678 556 262 556 822 557 823 557 459 557 814 558 465 558 463 558 812 559 465 559 814 559 324 560 465 560 812 560 810 561 324 561 812 561 264 562 324 562 810 562 802 563 264 563 810 563 265 564 264 564 802 564 804 565 265 565 802 565 799 566 312 566 311 566 816 567 814 567 463 567 816 568 463 568 461 568 816 569 461 569 824 569 798 570 820 570 269 570 798 571 269 571 312 571 798 572 312 572 799 572 457 573 455 573 583 573 457 574 583 574 825 574 457 575 825 575 826 575 457 576 826 576 822 576 457 577 822 577 459 577 591 578 447 578 593 578 593 579 447 579 467 579 593 580 467 580 595 580 595 581 467 581 469 581 595 582 469 582 597 582 447 405 591 405 449 405 449 583 591 583 589 583 449 583 589 583 451 583 451 584 589 584 587 584 451 584 587 584 43 584 43 585 587 585 585 585 43 586 585 586 453 586 453 587 585 587 583 587 453 588 583 588 455 588 823 589 827 589 459 589 459 590 827 590 824 590 459 591 824 591 461 591 799 592 311 592 808 592 808 593 311 593 310 593 808 594 310 594 806 594 806 595 310 595 265 595 806 596 265 596 804 596 370 597 637 597 368 597 368 423 637 423 638 423 368 598 638 598 389 598 389 599 638 599 640 599 389 600 640 600 387 600 387 601 640 601 642 601 387 602 642 602 385 602 637 603 370 603 635 603 635 604 370 604 365 604 635 604 365 604 633 604 633 605 365 605 367 605 633 606 367 606 631 606 631 607 367 607 270 607 631 608 270 608 629 608 629 609 270 609 269 609 629 610 269 610 820 610 316 611 315 611 800 611 807 612 316 612 800 612 809 613 319 613 318 613 319 614 809 614 811 614 811 615 325 615 319 615 325 616 811 616 813 616 813 617 445 617 325 617 445 618 813 618 815 618 815 619 443 619 445 619 441 620 828 620 829 620 829 621 439 621 441 621 830 622 439 622 829 622 437 623 439 623 830 623 801 624 800 624 315 624 801 625 315 625 364 625 801 626 364 626 821 626 707 627 346 627 705 627 705 348 346 348 348 348 705 628 348 628 703 628 703 629 348 629 350 629 703 630 350 630 701 630 701 631 350 631 352 631 701 632 352 632 699 632 346 633 707 633 344 633 344 634 707 634 709 634 344 634 709 634 342 634 342 635 709 635 710 635 342 636 710 636 363 636 363 637 710 637 712 637 363 638 712 638 361 638 361 639 712 639 821 639 361 640 821 640 364 640 809 641 318 641 803 641 803 642 318 642 317 642 803 643 317 643 805 643 805 644 317 644 316 644 805 645 316 645 807 645 815 646 817 646 443 646 443 647 817 647 828 647 443 648 828 648 441 648 830 649 831 649 437 649 437 650 831 650 753 650 437 651 753 651 435 651 435 652 753 652 751 652 435 653 751 653 433 653 433 654 751 654 749 654 433 655 749 655 17 655 17 656 749 656 747 656 17 656 747 656 431 656 431 657 747 657 745 657 431 657 745 657 429 657 429 368 745 368 743 368 429 658 743 658 427 658 427 659 743 659 741 659 427 660 741 660 425 660 425 661 741 661 739 661 425 662 739 662 423 662 755 663 309 663 754 663 754 664 309 664 492 664 754 665 492 665 756 665 756 666 492 666 273 666 756 667 273 667 673 667 673 668 273 668 272 668 673 669 272 669 674 669 674 670 272 670 497 670 674 671 497 671 757 671 757 672 497 672 496 672 757 673 496 673 758 673 758 674 496 674 495 674 758 674 495 674 759 674 759 675 495 675 494 675 759 676 494 676 760 676 760 677 494 677 493 677 760 677 493 677 761 677 761 678 493 678 503 678 761 678 503 678 762 678 762 679 503 679 502 679 762 680 502 680 763 680 763 681 502 681 501 681 763 681 501 681 764 681 764 682 501 682 500 682 764 683 500 683 765 683 309 663 755 663 308 663 308 106 755 106 680 106 308 106 680 106 283 106 283 684 680 684 714 684 283 684 714 684 422 684 422 685 714 685 716 685 422 686 716 686 420 686 420 687 716 687 718 687 420 687 718 687 418 687 418 688 718 688 720 688 418 689 720 689 416 689 416 690 720 690 722 690 416 691 722 691 414 691 414 692 722 692 724 692 414 693 724 693 412 693 412 694 724 694 726 694 412 695 726 695 410 695 410 696 726 696 728 696 410 697 728 697 408 697 408 698 728 698 730 698 408 698 730 698 406 698 406 699 730 699 732 699 406 699 732 699 404 699 404 700 732 700 734 700 404 701 734 701 402 701 402 702 734 702 736 702 402 703 736 703 400 703 400 704 736 704 738 704 400 705 738 705 398 705 666 706 421 706 715 706 715 707 421 707 419 707 715 708 419 708 717 708 717 666 419 666 417 666 717 666 417 666 719 666 719 709 417 709 415 709 719 669 415 669 721 669 721 710 415 710 413 710 721 711 413 711 723 711 723 712 413 712 411 712 723 713 411 713 725 713 725 714 411 714 409 714 725 715 409 715 727 715 727 716 409 716 407 716 727 717 407 717 729 717 729 718 407 718 405 718 729 718 405 718 731 718 731 719 405 719 403 719 731 719 403 719 733 719 733 720 403 720 401 720 733 721 401 721 735 721 735 722 401 722 399 722 735 723 399 723 737 723 737 724 399 724 423 724 737 725 423 725 739 725 421 706 666 706 284 706 284 106 666 106 665 106 284 106 665 106 326 106 326 726 665 726 669 726 326 726 669 726 331 726 331 727 669 727 683 727 331 728 683 728 329 728 329 687 683 687 670 687 329 729 670 729 334 729 334 730 670 730 672 730 334 689 672 689 332 689 332 731 672 731 684 731 332 732 684 732 341 732 341 733 684 733 686 733 341 734 686 734 339 734 339 735 686 735 688 735 339 735 688 735 337 735 337 736 688 736 690 736 337 737 690 737 335 737 335 738 690 738 691 738 335 738 691 738 360 738 360 739 691 739 693 739 360 739 693 739 358 739 358 740 693 740 695 740 358 741 695 741 356 741 356 742 695 742 697 742 356 742 697 742 354 742 354 743 697 743 699 743 354 744 699 744 352 744 553 745 397 745 664 745 664 746 397 746 390 746 664 747 390 747 663 747 663 748 390 748 392 748 663 749 392 749 661 749 661 750 392 750 394 750 661 751 394 751 659 751 659 752 394 752 396 752 659 753 396 753 657 753 657 754 396 754 371 754 657 755 371 755 656 755 656 756 371 756 373 756 656 756 373 756 654 756 654 757 373 757 375 757 654 758 375 758 652 758 652 759 375 759 377 759 652 759 377 759 650 759 650 760 377 760 379 760 650 760 379 760 648 760 648 761 379 761 381 761 648 762 381 762 646 762 646 763 381 763 383 763 646 763 383 763 644 763 644 764 383 764 385 764 644 765 385 765 642 765 397 745 553 745 322 745 322 104 553 104 552 104 322 104 552 104 291 104 291 766 552 766 621 766 291 766 621 766 292 766 292 767 621 767 619 767 292 768 619 768 491 768 491 769 619 769 617 769 491 769 617 769 489 769 489 770 617 770 615 770 489 771 615 771 487 771 487 772 615 772 613 772 487 773 613 773 485 773 485 774 613 774 611 774 485 775 611 775 483 775 483 776 611 776 609 776 483 777 609 777 481 777 481 778 609 778 607 778 481 779 607 779 479 779 479 780 607 780 605 780 479 780 605 780 477 780 477 781 605 781 603 781 477 781 603 781 475 781 475 782 603 782 601 782 475 783 601 783 473 783 473 784 601 784 599 784 473 785 599 785 471 785 471 786 599 786 597 786 471 787 597 787 469 787 555 788 293 788 620 788 620 789 293 789 490 789 620 790 490 790 618 790 618 748 490 748 488 748 618 748 488 748 616 748 616 791 488 791 486 791 616 751 486 751 614 751 614 792 486 792 484 792 614 793 484 793 612 793 612 794 484 794 482 794 612 795 482 795 610 795 610 796 482 796 480 796 610 797 480 797 608 797 608 798 480 798 478 798 608 799 478 799 606 799 606 800 478 800 476 800 606 800 476 800 604 800 604 801 476 801 474 801 604 801 474 801 602 801 602 802 474 802 472 802 602 803 472 803 600 803 600 804 472 804 470 804 600 805 470 805 598 805 598 806 470 806 468 806 598 807 468 807 596 807 293 788 555 788 268 788 268 104 555 104 554 104 268 104 554 104 306 104 306 808 554 808 558 808 306 808 558 808 307 808 307 809 558 809 559 809 307 810 559 810 526 810 526 769 559 769 581 769 526 811 581 811 527 811 527 812 581 812 580 812 527 771 580 771 528 771 528 813 580 813 579 813 528 814 579 814 529 814 529 815 579 815 578 815 529 816 578 816 530 816 530 817 578 817 577 817 530 817 577 817 519 817 519 818 577 818 576 818 519 819 576 819 520 819 520 820 576 820 575 820 520 820 575 820 521 820 521 821 575 821 574 821 521 821 574 821 522 821 522 822 574 822 573 822 522 823 573 823 523 823 523 824 573 824 572 824 523 824 572 824 524 824 524 825 572 825 571 825 524 826 571 826 525 826 543 827 541 827 783 827 543 828 783 828 786 828 543 829 786 829 782 829 543 830 782 830 781 830 543 831 781 831 785 831 543 832 785 832 784 832 543 833 784 833 752 833 543 834 752 834 753 834 543 835 753 835 819 835 819 836 753 836 831 836 819 837 831 837 830 837 819 838 830 838 829 838 819 839 829 839 828 839 819 840 828 840 817 840 818 841 816 841 824 841 818 842 824 842 827 842 818 843 827 843 823 843 818 844 823 844 822 844 818 845 822 845 826 845 818 846 826 846 825 846 818 847 825 847 583 847 818 848 583 848 582 848 818 849 582 849 544 849 544 850 582 850 790 850 544 851 790 851 789 851 544 852 789 852 788 852 544 853 788 853 787 853 544 854 787 854 542 854 819 0 818 0 543 0 543 0 818 0 544 0</p>
        </polylist>
      </mesh>
    </geometry>
  </library_geometries>
  <library_controllers/>
  <library_visual_scenes>
    <visual_scene id="Scene" name="Scene">
      <node id="Quadrotor_4" name="Quadrotor_4" type="NODE">
        <matrix sid="transform">1 0 0 0 0 1 0 0 0 0 1 0 0 0 0 1</matrix>
        <instance_geometry url="#Quadrotor_4-mesh" name="Quadrotor_4"/>
      </node>
    </visual_scene>
  </library_visual_scenes>
  <scene>
    <instance_visual_scene url="#Scene"/>
  </scene>
</COLLADA>