<?xml version="1.0" encoding="utf-8"?>
<COLLADA xmlns="http://www.collada.org/2005/11/COLLADASchema" version="1.4.1">
  <asset>
    <contributor>
      <author>Blender User</author>
      <authoring_tool>Blender 2.76.0 commit date:2015-11-03, commit time:10:56, hash:f337fea</authoring_tool>
    </contributor>
    <created>2016-02-26T14:34:10</created>
    <modified>2016-02-26T14:34:10</modified>
    <unit name="meter" meter="1"/>
    <up_axis>Z_UP</up_axis>
  </asset>
  <library_cameras>
    <camera id="Camera-camera" name="Camera">
      <optics>
        <technique_common>
          <perspective>
            <xfov sid="xfov">49.13434</xfov>
            <aspect_ratio>1.777778</aspect_ratio>
            <znear sid="znear">0.1</znear>
            <zfar sid="zfar">100</zfar>
          </perspective>
        </technique_common>
      </optics>
      <extra>
        <technique profile="blender">
          <YF_dofdist>0</YF_dofdist>
          <shiftx>0</shiftx>
          <shifty>0</shifty>
        </technique>
      </extra>
    </camera>
  </library_cameras>
  <library_lights>
    <light id="Lamp-light" name="Lamp">
      <technique_common>
        <point>
          <color sid="color">1 1 1</color>
          <constant_attenuation>1</constant_attenuation>
          <linear_attenuation>0</linear_attenuation>
          <quadratic_attenuation>0.00111109</quadratic_attenuation>
        </point>
      </technique_common>
      <extra>
        <technique profile="blender">
          <adapt_thresh>0.000999987</adapt_thresh>
          <area_shape>1</area_shape>
          <area_size>0.1</area_size>
          <area_sizey>0.1</area_sizey>
          <area_sizez>1</area_sizez>
          <atm_distance_factor>1</atm_distance_factor>
          <atm_extinction_factor>1</atm_extinction_factor>
          <atm_turbidity>2</atm_turbidity>
          <att1>0</att1>
          <att2>1</att2>
          <backscattered_light>1</backscattered_light>
          <bias>1</bias>
          <blue>1</blue>
          <buffers>1</buffers>
          <bufflag>0</bufflag>
          <bufsize>2880</bufsize>
          <buftype>2</buftype>
          <clipend>30.002</clipend>
          <clipsta>1.000799</clipsta>
          <compressthresh>0.04999995</compressthresh>
          <dist sid="blender_dist">29.99998</dist>
          <energy sid="blender_energy">1</energy>
          <falloff_type>2</falloff_type>
          <filtertype>0</filtertype>
          <flag>0</flag>
          <gamma sid="blender_gamma">1</gamma>
          <green>1</green>
          <halo_intensity sid="blnder_halo_intensity">1</halo_intensity>
          <horizon_brightness>1</horizon_brightness>
          <mode>8192</mode>
          <ray_samp>1</ray_samp>
          <ray_samp_method>1</ray_samp_method>
          <ray_samp_type>0</ray_samp_type>
          <ray_sampy>1</ray_sampy>
          <ray_sampz>1</ray_sampz>
          <red>1</red>
          <samp>3</samp>
          <shadhalostep>0</shadhalostep>
          <shadow_b sid="blender_shadow_b">0</shadow_b>
          <shadow_g sid="blender_shadow_g">0</shadow_g>
          <shadow_r sid="blender_shadow_r">0</shadow_r>
          <sky_colorspace>0</sky_colorspace>
          <sky_exposure>1</sky_exposure>
          <skyblendfac>1</skyblendfac>
          <skyblendtype>1</skyblendtype>
          <soft>3</soft>
          <spotblend>0.15</spotblend>
          <spotsize>75</spotsize>
          <spread>1</spread>
          <sun_brightness>1</sun_brightness>
          <sun_effect_type>0</sun_effect_type>
          <sun_intensity>1</sun_intensity>
          <sun_size>1</sun_size>
          <type>0</type>
        </technique>
      </extra>
    </light>
    <light id="Lamp_001-light" name="Lamp.001">
      <technique_common>
        <point>
          <color sid="color">1 1 1</color>
          <constant_attenuation>1</constant_attenuation>
          <linear_attenuation>0</linear_attenuation>
          <quadratic_attenuation>0.00111109</quadratic_attenuation>
        </point>
      </technique_common>
      <extra>
        <technique profile="blender">
          <adapt_thresh>0.000999987</adapt_thresh>
          <area_shape>1</area_shape>
          <area_size>0.1</area_size>
          <area_sizey>0.1</area_sizey>
          <area_sizez>1</area_sizez>
          <atm_distance_factor>1</atm_distance_factor>
          <atm_extinction_factor>1</atm_extinction_factor>
          <atm_turbidity>2</atm_turbidity>
          <att1>0</att1>
          <att2>1</att2>
          <backscattered_light>1</backscattered_light>
          <bias>1</bias>
          <blue>1</blue>
          <buffers>1</buffers>
          <bufflag>0</bufflag>
          <bufsize>2880</bufsize>
          <buftype>2</buftype>
          <clipend>30.002</clipend>
          <clipsta>1.000799</clipsta>
          <compressthresh>0.04999995</compressthresh>
          <dist sid="blender_dist">29.99998</dist>
          <energy sid="blender_energy">1</energy>
          <falloff_type>2</falloff_type>
          <filtertype>0</filtertype>
          <flag>0</flag>
          <gamma sid="blender_gamma">1</gamma>
          <green>1</green>
          <halo_intensity sid="blnder_halo_intensity">1</halo_intensity>
          <horizon_brightness>1</horizon_brightness>
          <mode>8192</mode>
          <ray_samp>1</ray_samp>
          <ray_samp_method>1</ray_samp_method>
          <ray_samp_type>0</ray_samp_type>
          <ray_sampy>1</ray_sampy>
          <ray_sampz>1</ray_sampz>
          <red>1</red>
          <samp>3</samp>
          <shadhalostep>0</shadhalostep>
          <shadow_b sid="blender_shadow_b">0</shadow_b>
          <shadow_g sid="blender_shadow_g">0</shadow_g>
          <shadow_r sid="blender_shadow_r">0</shadow_r>
          <sky_colorspace>0</sky_colorspace>
          <sky_exposure>1</sky_exposure>
          <skyblendfac>1</skyblendfac>
          <skyblendtype>1</skyblendtype>
          <soft>3</soft>
          <spotblend>0.15</spotblend>
          <spotsize>75</spotsize>
          <spread>1</spread>
          <sun_brightness>1</sun_brightness>
          <sun_effect_type>0</sun_effect_type>
          <sun_intensity>1</sun_intensity>
          <sun_size>1</sun_size>
          <type>0</type>
        </technique>
      </extra>
    </light>
    <light id="Lamp_002-light" name="Lamp.002">
      <technique_common>
        <point>
          <color sid="color">1 1 1</color>
          <constant_attenuation>1</constant_attenuation>
          <linear_attenuation>0</linear_attenuation>
          <quadratic_attenuation>0.00111109</quadratic_attenuation>
        </point>
      </technique_common>
      <extra>
        <technique profile="blender">
          <adapt_thresh>0.000999987</adapt_thresh>
          <area_shape>1</area_shape>
          <area_size>0.1</area_size>
          <area_sizey>0.1</area_sizey>
          <area_sizez>1</area_sizez>
          <atm_distance_factor>1</atm_distance_factor>
          <atm_extinction_factor>1</atm_extinction_factor>
          <atm_turbidity>2</atm_turbidity>
          <att1>0</att1>
          <att2>1</att2>
          <backscattered_light>1</backscattered_light>
          <bias>1</bias>
          <blue>1</blue>
          <buffers>1</buffers>
          <bufflag>0</bufflag>
          <bufsize>2880</bufsize>
          <buftype>2</buftype>
          <clipend>30.002</clipend>
          <clipsta>1.000799</clipsta>
          <compressthresh>0.04999995</compressthresh>
          <dist sid="blender_dist">29.99998</dist>
          <energy sid="blender_energy">1</energy>
          <falloff_type>2</falloff_type>
          <filtertype>0</filtertype>
          <flag>0</flag>
          <gamma sid="blender_gamma">1</gamma>
          <green>1</green>
          <halo_intensity sid="blnder_halo_intensity">1</halo_intensity>
          <horizon_brightness>1</horizon_brightness>
          <mode>8192</mode>
          <ray_samp>1</ray_samp>
          <ray_samp_method>1</ray_samp_method>
          <ray_samp_type>0</ray_samp_type>
          <ray_sampy>1</ray_sampy>
          <ray_sampz>1</ray_sampz>
          <red>1</red>
          <samp>3</samp>
          <shadhalostep>0</shadhalostep>
          <shadow_b sid="blender_shadow_b">0</shadow_b>
          <shadow_g sid="blender_shadow_g">0</shadow_g>
          <shadow_r sid="blender_shadow_r">0</shadow_r>
          <sky_colorspace>0</sky_colorspace>
          <sky_exposure>1</sky_exposure>
          <skyblendfac>1</skyblendfac>
          <skyblendtype>1</skyblendtype>
          <soft>3</soft>
          <spotblend>0.15</spotblend>
          <spotsize>75</spotsize>
          <spread>1</spread>
          <sun_brightness>1</sun_brightness>
          <sun_effect_type>0</sun_effect_type>
          <sun_intensity>1</sun_intensity>
          <sun_size>1</sun_size>
          <type>0</type>
        </technique>
      </extra>
    </light>
  </library_lights>
  <library_images>
    <image id="arucoMark_61_png" name="arucoMark_61_png">
      <init_from>arucoMark_75.png</init_from>
    </image>
    <image id="arucoMark_62_png" name="arucoMark_62_png">
      <init_from>arucoMark_76.png</init_from>
    </image>
    <image id="white" name="white">
      <init_from>white.png</init_from>
    </image>
  </library_images>
  <library_effects>
    <effect id="aruco1-effect">
      <profile_COMMON>
        <newparam sid="arucoMark_61_png-surface">
          <surface type="2D">
            <init_from>arucoMark_61_png</init_from>
          </surface>
        </newparam>
        <newparam sid="arucoMark_61_png-sampler">
          <sampler2D>
            <source>arucoMark_61_png-surface</source>
          </sampler2D>
        </newparam>
        <technique sid="common">
          <phong>
            <emission>
              <color sid="emission">0 0 0 1</color>
            </emission>
            <ambient>
              <color sid="ambient">0 0 0 1</color>
            </ambient>
            <diffuse>
              <texture texture="arucoMark_61_png-sampler" texcoord="UVMap"/>
            </diffuse>
            <specular>
              <color sid="specular">0.5 0.5 0.5 1</color>
            </specular>
            <shininess>
              <float sid="shininess">50</float>
            </shininess>
            <index_of_refraction>
              <float sid="index_of_refraction">1</float>
            </index_of_refraction>
          </phong>
        </technique>
      </profile_COMMON>
    </effect>
    <effect id="aruco2-effect">
      <profile_COMMON>
        <newparam sid="arucoMark_62_png-surface">
          <surface type="2D">
            <init_from>arucoMark_62_png</init_from>
          </surface>
        </newparam>
        <newparam sid="arucoMark_62_png-sampler">
          <sampler2D>
            <source>arucoMark_62_png-surface</source>
          </sampler2D>
        </newparam>
        <technique sid="common">
          <phong>
            <emission>
              <color sid="emission">0 0 0 1</color>
            </emission>
            <ambient>
              <color sid="ambient">0 0 0 1</color>
            </ambient>
            <diffuse>
              <texture texture="arucoMark_62_png-sampler" texcoord="UVMap"/>
            </diffuse>
            <specular>
              <color sid="specular">0.5 0.5 0.5 1</color>
            </specular>
            <shininess>
              <float sid="shininess">50</float>
            </shininess>
            <index_of_refraction>
              <float sid="index_of_refraction">1</float>
            </index_of_refraction>
          </phong>
        </technique>
      </profile_COMMON>
    </effect>
    <effect id="white-effect">
      <profile_COMMON>
        <newparam sid="white-surface">
          <surface type="2D">
            <init_from>white</init_from>
          </surface>
        </newparam>
        <newparam sid="white-sampler">
          <sampler2D>
            <source>white-surface</source>
          </sampler2D>
        </newparam>
        <technique sid="common">
          <phong>
            <emission>
              <color sid="emission">0 0 0 1</color>
            </emission>
            <ambient>
              <color sid="ambient">0 0 0 1</color>
            </ambient>
            <diffuse>
              <texture texture="white-sampler" texcoord="UVMap"/>
            </diffuse>
            <specular>
              <color sid="specular">0.5 0.5 0.5 1</color>
            </specular>
            <shininess>
              <float sid="shininess">50</float>
            </shininess>
            <index_of_refraction>
              <float sid="index_of_refraction">1</float>
            </index_of_refraction>
          </phong>
        </technique>
      </profile_COMMON>
    </effect>
  </library_effects>
  <library_materials>
    <material id="aruco1-material" name="aruco1">
      <instance_effect url="#aruco1-effect"/>
    </material>
    <material id="aruco2-material" name="aruco2">
      <instance_effect url="#aruco2-effect"/>
    </material>
    <material id="white-material" name="white">
      <instance_effect url="#white-effect"/>
    </material>
  </library_materials>
  <library_geometries>
    <geometry id="Cube-mesh" name="Cube">
      <mesh>
        <source id="Cube-mesh-positions">
          <float_array id="Cube-mesh-positions-array" count="84">-0.9999998 0.5950002 -1 1 -1 -1 -1 -0.9999998 -1 -0.9999997 1 -1 -1 -0.595 -1 0.9999994 -1.000001 1 -1 -0.9999997 1 -1 1 1 -1 -0.595 1 -1 0.5949999 1 0.5950003 -1 -1 -0.5949999 -0.9999999 -1 0.5949997 -1 1 -0.5950002 -1 1 0.9999998 -1 -0.595 0.9999995 -1 0.595 -1 -0.9999998 -0.595 -1 -0.9999997 0.595 -0.9999998 1 -0.595 -0.9999999 1 0.595 -1 -0.595 0.595 -1 -0.595 -0.595 -1 0.595 0.595 -0.9999999 0.595 -0.595 0.5949999 -1 0.595 0.5950002 -1 -0.595 -0.5950001 -1 0.595 -0.595 -0.9999999 -0.595</float_array>
          <technique_common>
            <accessor source="#Cube-mesh-positions-array" count="28" stride="3">
              <param name="X" type="float"/>
              <param name="Y" type="float"/>
              <param name="Z" type="float"/>
            </accessor>
          </technique_common>
        </source>
        <source id="Cube-mesh-normals">
          <float_array id="Cube-mesh-normals-array" count="135">0.7071072 0.7071064 8.3253e-7 0 0 1 -1 0 -2.94344e-7 -7.3586e-7 -1 3.63387e-7 -1 0 -2.94344e-7 0 0 -1 -1 1.23674e-7 -2.94344e-7 -8.83032e-7 -1 -3.63387e-7 -2.5044e-7 -1 0 0 -1 4.94696e-7 -1.50264e-7 -1 -1.68363e-7 -5.88689e-7 -1 0 -8.83033e-7 -1 0 -1 2.47348e-7 -1.47172e-7 -1 1.68363e-7 0 -1 3.63387e-7 -2.94344e-7 -1 0 0 -2.94344e-7 -1 0 -5.88688e-7 -1 0 -1 7.26776e-7 -1.47172e-7 -1 4.94696e-7 0 0.7071071 0.7071065 3.12199e-7 0.707107 0.7071067 1.4167e-7 0.7071068 0.7071067 4.16265e-7 2.94344e-7 0 1 -5.88687e-7 -1 0 -1 7.26775e-7 -1.47172e-7 -4.41516e-7 0 -1 -1 2.47348e-7 -2.94344e-7 -8.83033e-7 -1 -7.26776e-7 -1.50264e-7 -1 -4.94696e-7 0 -1 -4.94696e-7 0 -1 -1.68363e-7 -1.47172e-7 -1 -7.26776e-7 -5.88688e-7 -1 -1.23674e-7 -1 0 -2.94344e-7 -1 0 0 -1 3.63387e-7 -2.94344e-7 -1 4.94695e-7 0 -1.47172e-7 -1 0 -2.94344e-7 -1 0 -1 3.63388e-7 -2.94344e-7 -1 4.94696e-7 0 0.7071071 0.7071066 5.20332e-7 0.707107 0.7071067 2.8334e-7</float_array>
          <technique_common>
            <accessor source="#Cube-mesh-normals-array" count="45" stride="3">
              <param name="X" type="float"/>
              <param name="Y" type="float"/>
              <param name="Z" type="float"/>
            </accessor>
          </technique_common>
        </source>
        <source id="Cube-mesh-map-0">
          <float_array id="Cube-mesh-map-0-array" count="312">0.1999848 0.3677328 0.2668725 0.3410938 0.4828239 0.4537612 0.5570732 0.6352669 0.2809923 0.7208355 0.4886668 0.5497572 0.591521 0.6666876 0.5570732 0.6352669 0.5972424 0.5945219 0.5551134 0.7465264 0.591521 0.6666876 0.6755332 0.6465232 0.5054457 0.5283515 0.4886668 0.5497572 0.4783851 0.5320973 0.4928368 0.431344 0.4828239 0.4537612 0.286911 0.3069102 0.5972424 0.5945219 0.5570732 0.6352669 0.4886668 0.5497572 0.2447336 0.6731761 0.2809923 0.7208355 9.40265e-5 0.8931512 0.2809923 0.7208355 0.5551134 0.7465264 0.8843582 0.9999059 0.08513039 0.173841 0.8843554 9.40265e-5 0.5608344 0.2286122 0.9998998 0.9998999 9.998e-5 0.9999001 9.998e-5 1.0028e-4 0.1999848 0.3677328 0.08513039 0.173841 0.286911 0.3069102 0.1684939 0.6182649 9.40265e-5 0.8931512 0.08513039 0.173841 0.5703626 0.3378021 0.6171274 0.3849091 0.5080778 0.4609543 0.9999 0.9999001 9.98974e-5 0.9999 1.00046e-4 9.98974e-5 0.4928368 0.431344 0.5080778 0.4609543 0.4840542 0.4717794 0.5080778 0.4609543 0.5054457 0.5283515 0.4839877 0.5174039 0.8843554 9.40265e-5 0.6966814 0.3403742 0.607118 0.2974985 0.8843582 0.9999059 0.6755332 0.6465232 0.6966814 0.3403742 0.6966814 0.3403742 0.6171274 0.3849091 0.5703626 0.3378021 0.6755332 0.6465232 0.5972424 0.5945219 0.6171274 0.3849091 0.1684939 0.6182649 0.4839877 0.5174039 0.4783851 0.5320973 0.1999848 0.3677328 0.4840542 0.4717794 0.4839877 0.5174039 0.4840542 0.4717794 0.1999848 0.3677328 0.4828239 0.4537612 0.2447336 0.6731761 0.4783851 0.5320973 0.4886668 0.5497572 0.5570732 0.6352669 0.591521 0.6666876 0.5551134 0.7465264 0.2447336 0.6731761 0.4886668 0.5497572 0.2809923 0.7208355 0.5570732 0.6352669 0.5551134 0.7465264 0.2809923 0.7208355 0.6755332 0.6465232 0.591521 0.6666876 0.5972424 0.5945219 0.8843582 0.9999059 0.5551134 0.7465264 0.6755332 0.6465232 0.4839877 0.5174039 0.5054457 0.5283515 0.4783851 0.5320973 0.5608344 0.2286122 0.607118 0.2974985 0.5703626 0.3378021 0.5703626 0.3378021 0.4928368 0.431344 0.286911 0.3069102 0.4828239 0.4537612 0.2668725 0.3410938 0.286911 0.3069102 0.286911 0.3069102 0.5608344 0.2286122 0.5703626 0.3378021 0.5054457 0.5283515 0.5972424 0.5945219 0.4886668 0.5497572 0.1684939 0.6182649 0.2447336 0.6731761 9.40265e-5 0.8931512 9.40265e-5 0.8931512 0.2809923 0.7208355 0.8843582 0.9999059 0.286911 0.3069102 0.08513039 0.173841 0.5608344 0.2286122 0.9998999 9.998e-5 0.9998998 0.9998999 9.998e-5 1.0028e-4 0.2668725 0.3410938 0.1999848 0.3677328 0.286911 0.3069102 0.1999848 0.3677328 0.1684939 0.6182649 0.08513039 0.173841 0.4928368 0.431344 0.5703626 0.3378021 0.5080778 0.4609543 0.9999001 9.99868e-5 0.9999 0.9999001 1.00046e-4 9.98974e-5 0.4828239 0.4537612 0.4928368 0.431344 0.4840542 0.4717794 0.4840542 0.4717794 0.5080778 0.4609543 0.4839877 0.5174039 0.5608344 0.2286122 0.8843554 9.40265e-5 0.607118 0.2974985 0.8843554 9.40265e-5 0.8843582 0.9999059 0.6966814 0.3403742 0.607118 0.2974985 0.6966814 0.3403742 0.5703626 0.3378021 0.6966814 0.3403742 0.6755332 0.6465232 0.6171274 0.3849091 0.2447336 0.6731761 0.1684939 0.6182649 0.4783851 0.5320973 0.1684939 0.6182649 0.1999848 0.3677328 0.4839877 0.5174039</float_array>
          <technique_common>
            <accessor source="#Cube-mesh-map-0-array" count="156" stride="2">
              <param name="S" type="float"/>
              <param name="T" type="float"/>
            </accessor>
          </technique_common>
        </source>
        <vertices id="Cube-mesh-vertices">
          <input semantic="POSITION" source="#Cube-mesh-positions"/>
        </vertices>
        <polylist material="aruco1-material" count="2">
          <input semantic="VERTEX" source="#Cube-mesh-vertices" offset="0"/>
          <input semantic="NORMAL" source="#Cube-mesh-normals" offset="1"/>
          <input semantic="TEXCOORD" source="#Cube-mesh-map-0" offset="2" set="0"/>
          <vcount>3 3 </vcount>
          <p>20 14 42 22 14 43 23 14 44 21 36 129 20 36 130 23 36 131</p>
        </polylist>
        <polylist material="aruco2-material" count="2">
          <input semantic="VERTEX" source="#Cube-mesh-vertices" offset="0"/>
          <input semantic="NORMAL" source="#Cube-mesh-normals" offset="1"/>
          <input semantic="TEXCOORD" source="#Cube-mesh-map-0" offset="2" set="0"/>
          <vcount>3 3 </vcount>
          <p>24 10 30 26 10 31 27 10 32 25 32 117 24 32 118 27 32 119</p>
        </polylist>
        <polylist material="white-material" count="48">
          <input semantic="VERTEX" source="#Cube-mesh-vertices" offset="0"/>
          <input semantic="NORMAL" source="#Cube-mesh-normals" offset="1"/>
          <input semantic="TEXCOORD" source="#Cube-mesh-map-0" offset="2" set="0"/>
          <vcount>3 3 3 3 3 3 3 3 3 3 3 3 3 3 3 3 3 3 3 3 3 3 3 3 3 3 3 3 3 3 3 3 3 3 3 3 3 3 3 3 3 3 3 3 3 3 3 3 </vcount>
          <p>14 0 0 1 0 1 3 0 2 8 1 3 12 1 4 9 1 5 6 2 6 8 2 7 20 2 8 13 3 9 6 3 10 17 3 11 22 4 12 9 4 13 7 4 14 0 5 15 3 5 16 10 5 17 20 6 18 8 6 19 9 6 20 5 7 21 12 7 22 24 7 23 12 8 24 13 8 25 26 8 26 25 9 27 27 9 28 11 9 29 14 11 33 25 11 34 10 11 35 15 12 36 24 12 37 25 12 38 4 13 39 21 13 40 23 13 41 0 15 45 23 15 46 18 15 47 23 16 48 22 16 49 19 16 50 27 17 51 16 17 52 2 17 53 26 18 54 17 18 55 16 18 56 16 19 57 21 19 58 4 19 59 17 20 60 20 20 61 21 20 62 15 21 63 19 21 64 7 21 65 14 22 66 18 22 67 19 22 68 18 23 69 14 23 70 3 23 71 5 24 72 7 24 73 9 24 74 8 1 75 6 1 76 13 1 77 5 1 78 9 1 79 12 1 80 8 1 81 13 1 82 12 1 83 17 2 84 6 2 85 20 2 86 26 25 87 13 25 88 17 25 89 19 26 90 22 26 91 7 26 92 11 5 93 2 5 94 4 5 95 4 5 96 0 5 97 10 5 98 3 27 99 1 27 100 10 27 101 10 5 102 11 5 103 4 5 104 22 28 105 20 28 106 9 28 107 15 29 108 5 29 109 24 29 110 24 30 111 12 30 112 26 30 113 10 31 114 25 31 115 11 31 116 1 33 120 14 33 121 10 33 122 14 34 123 15 34 124 25 34 125 0 35 126 4 35 127 23 35 128 3 37 132 0 37 133 18 37 134 18 38 135 23 38 136 19 38 137 11 39 138 27 39 139 2 39 140 27 40 141 26 40 142 16 40 143 2 41 144 16 41 145 4 41 146 16 42 147 17 42 148 21 42 149 5 43 150 15 43 151 7 43 152 15 44 153 14 44 154 19 44 155</p>
        </polylist>
      </mesh>
    </geometry>
  </library_geometries>
  <library_controllers/>
  <library_visual_scenes>
    <visual_scene id="Scene" name="Scene">
      <node id="Camera" name="Camera" type="NODE">
        <matrix sid="transform">0.6858805 -0.3173701 0.6548619 7.481132 0.7276338 0.3124686 -0.6106656 -6.50764 -0.01081678 0.8953432 0.4452454 5.343665 0 0 0 1</matrix>
        <instance_camera url="#Camera-camera"/>
      </node>
      <node id="Lamp" name="Lamp" type="NODE">
        <matrix sid="transform">-0.2908646 -0.7711008 0.5663932 4.076245 0.9551712 -0.1998834 0.2183912 1.005454 -0.05518906 0.6045247 0.7946723 5.903862 0 0 0 1</matrix>
        <instance_light url="#Lamp-light"/>
      </node>
      <node id="Cube" name="Cube" type="NODE">
        <matrix sid="transform">-0.1975 1.7266e-8 0 0 -1.7266e-8 -0.1974999 0 0 0 0 0.1975 0 0 0 0 1</matrix>
        <instance_geometry url="#Cube-mesh" name="Cube">
          <bind_material>
            <technique_common>
              <instance_material symbol="aruco1-material" target="#aruco1-material">
                <bind_vertex_input semantic="UVMap" input_semantic="TEXCOORD" input_set="0"/>
              </instance_material>
              <instance_material symbol="aruco2-material" target="#aruco2-material">
                <bind_vertex_input semantic="UVMap" input_semantic="TEXCOORD" input_set="0"/>
              </instance_material>
              <instance_material symbol="white-material" target="#white-material">
                <bind_vertex_input semantic="UVMap" input_semantic="TEXCOORD" input_set="0"/>
              </instance_material>
            </technique_common>
          </bind_material>
        </instance_geometry>
      </node>
      <node id="Lamp_001" name="Lamp_001" type="NODE">
        <matrix sid="transform">-0.2908646 -0.7711008 0.5663932 -4.88887 0.9551712 -0.1998834 0.2183912 -0.2392339 -0.05518906 0.6045247 0.7946723 5.903862 0 0 0 1</matrix>
        <instance_light url="#Lamp_001-light"/>
      </node>
      <node id="Lamp_002" name="Lamp_002" type="NODE">
        <matrix sid="transform">-0.2908646 -0.7711008 0.5663932 -0.3306217 0.9551712 -0.1998834 0.2183912 1.815865 -0.05518906 0.6045247 0.7946723 5.903862 0 0 0 1</matrix>
        <instance_light url="#Lamp_002-light"/>
      </node>
    </visual_scene>
  </library_visual_scenes>
  <scene>
    <instance_visual_scene url="#Scene"/>
  </scene>
</COLLADA>
