<?xml version="1.0" ?>
<sdf version="1.5">
  <world name="default">
    <!-- A global light source -->
    <include>
      <uri>model://sun</uri>
    </include>
    <!-- A ground plane -->
    <include>
      <uri>model://ground_plane</uri>
    </include>
    <include>
      <uri>model://asphalt_plane</uri>
	<pose>5 10 0 0 -0 0</pose>
    </include>
    <include>
      <uri>model://ardrone_opt_flow</uri>
	<pose>2 2 0 0 0 1.5707</pose>
    </include>		
    <include>
      <uri>model://aruco_pole</uri>
	<pose>8 7 0.58675 0 0 3.14159</pose>
    </include>	
    <include>
      <uri>model://aruco_pole2</uri>
	<pose>7 6 0.58675 0 0 3.14159</pose>
    </include>	
    <include>
      <uri>model://aruco_pole3</uri>
	<pose>5.50 6 0.58675 0 0 3.14159</pose>
    </include>	
    <include>
      <uri>model://aruco_pole4</uri>
	<pose>3.50 6 0.58675 0 0 3.14159</pose>
    </include>	
    <include>
      <uri>model://aruco_pole5</uri>
	<pose>2 6 0.58675 0 0 3.14159</pose>
    </include>	
    <include>
      <uri>model://aruco_pole6</uri>
	<pose>1 7 0.58675 0 -0 3.14159</pose>
    </include>	
    <include>
      <uri>model://aruco_landmark</uri>
	<pose>0 8 0.58675 0 0 -0.785398</pose>
    </include>	
    <include>
      <uri>model://aruco_landmark2</uri>
	<pose>0 11 0.58675 0 0 -0.785398</pose>
    </include>
    <include>
      <uri>model://aruco_landmark3</uri>
	<pose>1 13 0.58675 0 0 3.92699</pose>
    </include>
    <include>
      <uri>model://aruco_landmark4</uri>
	<pose>3 13 0.58675 0 0 3.92699</pose>
    </include>
    <include>
      <uri>model://aruco_landmark5</uri>
	<pose>6 13 0.58675 0 0 3.92699</pose>
    </include>
    <include>
      <uri>model://aruco_landmark6</uri>
	<pose>8 13 0.58675 0 0 3.92699</pose>
    </include>
    <include>
      <uri>model://aruco_landmark7</uri>
	<pose>9 11 0.58675 0 0 2.35619</pose>
    </include>
    <include>
      <uri>model://aruco_landmark8</uri>
	<pose>9 8 0.58675 0 0 2.35619</pose>
    </include>
    <!--<include>
      <uri>model://moving_platform</uri>
    </include>-->
  </world>
</sdf>
